<svg width="32" height="32" viewBox="0 0 32 32" fill="none" xmlns="http://www.w3.org/2000/svg">
<path d="M16.0032 10.7917C15.8249 10.6691 13.5403 9.54496 12.1379 7.53814C9.38974 3.60572 12.4781 -0.135936 16.0032 1.91522C19.5299 -0.137086 22.6175 3.60417 19.8686 7.53809C18.4746 9.53288 16.169 10.6777 16.0032 10.7917Z" fill="#FF61A3"/>
<path d="M9.7019 17.2093C9.89243 16.9552 9.84096 16.5947 9.58688 16.4041C9.3328 16.2135 8.97233 16.2651 8.78174 16.5191C8.58034 16.7877 8.17806 16.7878 7.9766 16.5191C7.78607 16.2651 7.42559 16.2135 7.17146 16.4041C6.91738 16.5947 6.86591 16.9552 7.05644 17.2093C7.71821 18.0916 9.03984 18.092 9.7019 17.2093Z" fill="#8592AB"/>
<path d="M27.0717 21.4652C26.6761 21.4652 26.2515 21.1993 25.9067 20.7355C25.7305 20.4986 25.5877 20.2237 25.4901 19.9429C27.2608 19.2074 28.5094 17.4604 28.5094 15.4267V12.8387C28.5094 10.7685 27.1252 8.97495 25.173 8.41601C25.284 8.18827 25.3464 7.93275 25.3464 7.6628C25.3464 6.71147 24.5724 5.9375 23.6211 5.9375C22.6697 5.9375 21.8958 6.71147 21.8958 7.6628C21.8958 7.9327 21.9582 8.18827 22.0692 8.41601C20.1453 8.96684 18.7327 10.7403 18.7327 12.8387V15.4267C18.7327 17.5077 20.0403 19.288 21.8766 19.9921C21.7528 20.8271 21.0373 21.4653 20.1705 21.4653C19.699 21.4653 19.235 21.5587 18.8046 21.7356V21.53C18.8046 19.988 17.5501 18.7335 16.0082 18.7335H15.9938C14.4518 18.7335 13.1974 19.988 13.1974 21.53V21.7355C12.767 21.5587 12.3029 21.4653 11.8315 21.4653C11.4359 21.4653 11.0113 21.1993 10.6665 20.7355C10.4904 20.4987 10.3475 20.2238 10.2499 19.9429C12.0206 19.2074 13.2693 17.4604 13.2693 15.4267V12.8388C13.2693 10.3019 11.2054 8.23796 8.66847 8.23796H8.09337C5.55648 8.23796 3.49256 10.3019 3.49256 12.8388V15.4267C3.49256 17.5077 4.80017 19.2881 6.63647 19.9922C6.5127 20.8271 5.79722 21.4653 4.93032 21.4653C2.94421 21.4653 1.33594 23.0734 1.33594 25.0597V30.0918C1.33594 30.4095 1.59341 30.6669 1.91104 30.6669H30.091C30.4085 30.6669 30.6661 30.4095 30.6661 30.0918V25.0597C30.6661 23.0777 29.0536 21.4652 27.0717 21.4652ZM23.6211 7.0877C23.9382 7.0877 24.1962 7.34569 24.1962 7.6628C24.1962 7.97991 23.9382 8.2379 23.6211 8.2379C23.304 8.2379 23.046 7.97991 23.046 7.6628C23.046 7.34569 23.304 7.0877 23.6211 7.0877ZM23.3335 9.3881H23.9086C24.6759 9.3881 25.3853 9.64011 25.959 10.0653C24.0809 11.1499 22.0667 11.8453 19.9543 12.1392C20.2785 10.5708 21.6705 9.3881 23.3335 9.3881ZM19.8829 15.4267V13.309C22.318 13.0028 24.6321 12.2008 26.775 10.92C27.1437 11.469 27.3592 12.1291 27.3592 12.8387V15.4267C27.3592 17.4879 25.6823 19.1648 23.6211 19.1648C21.5599 19.1648 19.8829 17.4879 19.8829 15.4267ZM24.3807 20.2557C24.5905 20.8958 24.971 21.5086 25.4609 21.9491C24.4312 22.8094 22.9507 22.8338 21.8956 22.0399C22.4655 21.6112 22.8614 20.9811 22.9955 20.2737C23.4547 20.3326 23.9047 20.3303 24.3807 20.2557ZM14.3476 21.5299C14.3476 20.6222 15.0861 19.8837 15.9938 19.8837H16.0082C16.9159 19.8837 17.6544 20.6222 17.6544 21.5299V22.1194C17.6544 23.0271 16.9159 23.7656 16.0082 23.7656H15.9938C15.0861 23.7656 14.3476 23.0271 14.3476 22.1194V21.5299ZM8.09337 9.3881H8.66847C10.3742 9.3881 11.7939 10.6324 12.0697 12.2609C11.0911 12.233 10.1484 11.8709 9.40322 11.2322L8.75514 10.6768C8.53982 10.4922 8.22196 10.4922 8.00658 10.6768L7.35862 11.2322C6.61346 11.8709 5.67064 12.233 4.69199 12.261C4.96793 10.6325 6.38768 9.3881 8.09337 9.3881ZM4.64276 15.4267V13.4122C5.91345 13.3952 7.14123 12.9334 8.10723 12.1055L8.38092 11.8709C8.51699 11.955 9.80987 13.3813 12.1191 13.4122V15.4267C12.1191 17.4879 10.4421 19.1648 8.38092 19.1648C6.3197 19.1648 4.64276 17.4879 4.64276 15.4267ZM9.14057 20.2557C9.35036 20.8958 9.73079 21.5086 10.2208 21.9491C9.191 22.8094 7.71052 22.8338 6.65544 22.0399C7.22537 21.6112 7.62127 20.9811 7.75532 20.2737C8.21454 20.3326 8.6645 20.3303 9.14057 20.2557ZM2.48614 25.0596C2.48614 23.7093 3.57975 22.6154 4.93032 22.6154C5.12556 22.6154 5.31828 22.5955 5.5068 22.5571C7.08821 24.1742 9.69709 24.1686 11.2713 22.5401C11.4548 22.5897 11.6421 22.6154 11.8315 22.6154C12.4055 22.6154 12.9635 22.8185 13.4025 23.1874C13.4059 23.1903 13.4095 23.1926 13.413 23.1954C13.5832 23.602 13.847 23.9598 14.177 24.2425C13.036 24.8833 12.2628 26.1046 12.2628 27.5037V29.5166H4.78654V27.7913C4.78654 27.4736 4.52907 27.2162 4.21144 27.2162C3.89381 27.2162 3.63634 27.4736 3.63634 27.7913V29.5166H2.48614V25.0596ZM13.413 29.5166V27.5038C13.413 26.0768 14.5739 24.9158 16.001 24.9158C17.4281 24.9158 18.5889 26.0768 18.5889 27.5038V29.5166C17.3265 29.5166 14.6762 29.5166 13.413 29.5166ZM29.5159 29.5166H28.3657V27.7913C28.3657 27.4737 28.1081 27.2162 27.7906 27.2162C27.473 27.2162 27.2155 27.4737 27.2155 27.7913V29.5166H19.7392V27.5038C19.7392 26.1046 18.966 24.8833 17.825 24.2426C18.1548 23.96 18.4185 23.6026 18.5887 23.1963C18.5923 23.1933 18.5962 23.1908 18.5998 23.1878C19.0386 22.8187 19.5964 22.6154 20.1705 22.6154C20.3657 22.6154 20.5584 22.5955 20.747 22.5571C22.3284 24.1742 24.9372 24.1686 26.5115 22.5401C26.6949 22.5897 26.8823 22.6154 27.0717 22.6154C28.4194 22.6154 29.5159 23.7118 29.5159 25.0595V29.5166Z" fill="#8592AB"/>
<path d="M21.6064 15.369C21.924 15.369 22.1815 15.1115 22.1815 14.7939C22.1815 14.4762 21.924 14.2188 21.6064 14.2188C21.2887 14.2188 21.0312 14.4762 21.0312 14.7939C21.0312 15.1115 21.2887 15.369 21.6064 15.369Z" fill="#8592AB"/>
<path d="M25.6337 15.369C25.9513 15.369 26.2088 15.1115 26.2088 14.7939C26.2088 14.4762 25.9513 14.2188 25.6337 14.2188C25.3161 14.2188 25.0586 14.4762 25.0586 14.7939C25.0586 15.1115 25.3161 15.369 25.6337 15.369Z" fill="#8592AB"/>
<path d="M24.9441 17.2093C25.1347 16.9552 25.0832 16.5947 24.8291 16.4041C24.575 16.2135 24.2145 16.2651 24.024 16.5191C23.8226 16.7876 23.4203 16.7878 23.2188 16.5191C23.0282 16.2651 22.6678 16.2135 22.4137 16.4041C22.1596 16.5947 22.1081 16.9552 22.2987 17.2093C22.6139 17.6296 23.096 17.8706 23.6214 17.8706C24.1468 17.8706 24.6289 17.6296 24.9441 17.2093Z" fill="#8592AB"/>
<path d="M6.36807 15.369C6.68569 15.369 6.94317 15.1115 6.94317 14.7939C6.94317 14.4762 6.68569 14.2188 6.36807 14.2188C6.05045 14.2188 5.79297 14.4762 5.79297 14.7939C5.79297 15.1115 6.05045 15.369 6.36807 15.369Z" fill="#8592AB"/>
<path d="M10.3954 15.369C10.713 15.369 10.9705 15.1115 10.9705 14.7939C10.9705 14.4762 10.713 14.2188 10.3954 14.2188C10.0778 14.2188 9.82031 14.4762 9.82031 14.7939C9.82031 15.1115 10.0778 15.369 10.3954 15.369Z" fill="#8592AB"/>
</svg>
