<svg width="54" height="54" viewBox="0 0 54 54" fill="none" xmlns="http://www.w3.org/2000/svg">
<g clip-path="url(#clip0_5225_95772)">
<path d="M51.56 34.0877C51.1554 33.6686 50.4876 33.657 50.0687 34.0616C49.6497 34.4662 49.6381 35.1339 50.0426 35.5529C53.2382 38.809 50.8469 44.4413 46.2826 44.4108C43.4503 44.4108 41.1059 42.1071 41.0565 39.2751C41.0469 38.6926 40.5638 38.2282 39.9836 38.2391C39.4012 38.2492 38.9373 38.7296 38.9474 39.3121C38.9375 43.2083 42.387 46.5986 46.2827 46.5202C52.689 46.5635 56.0452 38.6554 51.56 34.0877Z" fill="#8592AB"/>
<path d="M25.3703 36.0504H32.8036C33.1192 36.0504 33.4181 35.909 33.6185 35.6653C39.7919 28.2635 40.0625 23.9703 37.533 15.642C37.5143 15.5739 37.4956 15.5057 37.4768 15.437L39.5973 15.5695C40.4208 18.3958 41.4217 21.6374 42.1405 24.3163C42.9225 27.2354 42.8413 28.3894 41.7307 29.8434L41.2482 30.3258C40.8363 30.7377 40.8363 31.4055 41.2482 31.8175C41.6602 32.2293 42.3279 32.2293 42.7398 31.8175L43.2705 31.2869C43.3016 31.2557 43.3307 31.2227 43.3577 31.1879C45.1222 28.9155 45.0183 26.9071 44.1779 23.7705C43.6913 21.9543 43.0653 19.849 42.4598 17.8131C42.2532 17.1184 42.0423 16.4089 41.8364 15.7095L44.3832 15.8687C44.6738 15.8867 44.9588 15.784 45.1711 15.5848C45.3833 15.3854 45.5036 15.1073 45.5036 14.8161V8.53439C45.5036 8.24245 45.3827 7.96359 45.1695 7.76415C44.9564 7.56482 44.6701 7.46167 44.3788 7.48202L36.5268 8.00525C36.0127 8.03943 35.5988 8.44 35.5474 8.95258L35.2053 12.3748L33.5776 12.9385C33.0271 13.129 32.7354 13.7298 32.926 14.2802C33.1156 14.8358 33.7321 15.1217 34.2677 14.9317L35.0777 14.6513C35.2213 15.1861 35.3622 15.7011 35.4984 16.1987C37.4762 23.4276 38.3141 26.4913 32.3024 33.941H25.9828C24.6099 31.5031 23.4404 28.8979 23.4404 24.8928C23.4404 24.3104 22.9682 23.8381 22.3857 23.8381C21.8032 23.8381 21.3311 24.3104 21.3311 24.8928C21.3311 29.7098 22.8097 32.6698 24.457 35.523C24.6453 35.8492 24.9936 36.0504 25.3703 36.0504ZM37.5575 10.0506L43.3943 9.66154V13.6933L38.5313 13.3894C38.8671 13.118 39.0143 12.6555 38.8648 12.2239C38.6742 11.6736 38.0733 11.382 37.523 11.5724L37.4011 11.6146L37.5575 10.0506Z" fill="#8592AB"/>
<path d="M36.8602 38.1287H23.0007C22.3056 29.7199 12.7031 24.908 5.56443 29.323V29.0769L7.96732 24.5783C8.24186 24.0645 8.04779 23.4254 7.53395 23.1511C7.02032 22.8765 6.38118 23.0705 6.10675 23.5844L3.5794 28.3158C3.49777 28.4687 3.45505 28.6394 3.45505 28.8128V30.9632C1.32384 33.0556 0 35.9678 0 39.1833C0 39.7657 0.472184 40.238 1.05469 40.238H4.26305C4.70739 43.7488 7.97164 46.5866 11.5241 46.5196C15.0762 46.5867 18.3413 43.7487 18.7852 40.238H36.8602C38.2581 40.1862 38.257 38.1801 36.8602 38.1287ZM11.5241 44.4102C9.02116 44.4102 6.89924 42.6109 6.40554 40.2379H16.6429C16.1491 42.6109 14.0271 44.4102 11.5241 44.4102ZM2.16812 38.1286C3.6777 27.0507 19.3391 27.0723 20.8798 38.1287L2.16812 38.1286Z" fill="#8592AB"/>
<path d="M13.9582 33.9414H9.09001C7.69213 33.9933 7.69318 35.9994 9.09001 36.0508H13.9583C15.3561 35.9988 15.3551 33.9928 13.9582 33.9414Z" fill="#8592AB"/>
<path fill-rule="evenodd" clip-rule="evenodd" d="M5.85979 25.243H23.5249C24.9749 25.243 26.1616 24.0565 26.1616 22.6063C26.1616 21.1561 24.975 19.9696 23.5249 19.9696H5.85979C2.37268 20.1049 2.36403 25.1042 5.85979 25.243Z" fill="#FF61A3"/>
<path fill-rule="evenodd" clip-rule="evenodd" d="M46.283 40.2376H35.369C34.6156 30.4225 46.2053 24.8669 53.2545 31.7745L54.0003 32.5203L46.283 40.2376Z" fill="#FF61A3"/>
</g>
<defs>
<clipPath id="clip0_5225_95772">
<rect width="54" height="54" fill="white"/>
</clipPath>
</defs>
</svg>
