<svg width="54" height="54" viewBox="0 0 54 54" fill="none" xmlns="http://www.w3.org/2000/svg">
<path d="M51.4259 38.3045H2.57324V28.7839C2.57324 25.6668 5.10006 23.14 8.21708 23.14H45.7821C48.8991 23.14 51.4259 25.6668 51.4259 28.7839V38.3045Z" fill="#FF61A3"/>
<path d="M52.9453 37.25H1.05469C0.472289 37.25 0 37.7223 0 38.3047V42.876C0 43.4584 0.472289 43.9307 1.05469 43.9307H1.88293V48.9268C1.88293 49.5092 2.35522 49.9814 2.93762 49.9814H11.0831C11.6655 49.9814 12.1378 49.5092 12.1378 48.9268V43.9307H41.8622V48.9268C41.8622 49.5092 42.3345 49.9814 42.9169 49.9814H51.0624C51.6448 49.9814 52.1171 49.5092 52.1171 48.9268V43.9307H52.9453C53.5277 43.9307 54 43.4584 54 42.876V38.3047C54 37.7223 53.5277 37.25 52.9453 37.25ZM2.10938 39.3594H51.8906V41.8213H2.10938V39.3594ZM10.0284 47.8721H3.99231V43.9307H10.0284V47.8721ZM50.0077 47.8721H43.9716V43.9307H50.0077V47.8721Z" fill="#8592AB"/>
<path d="M1.58984 24.1947H52.411C52.9934 24.1947 53.4657 23.7225 53.4657 23.1401V15.2033C53.4657 14.6209 52.9934 14.1486 52.411 14.1486H47.3619L46.0477 6.94934C45.7365 5.24496 44.2548 4.00781 42.5243 4.00781H11.4767C9.74616 4.00781 8.26443 5.24486 7.9533 6.94934L6.63905 14.1486H1.58984C1.00745 14.1486 0.535156 14.6209 0.535156 15.2033V23.1401C0.535156 23.7226 1.00745 24.1947 1.58984 24.1947V24.1947ZM51.3563 16.258V22.0854H48.8108L47.747 16.258H51.3563ZM10.0284 7.32818C10.1564 6.6265 10.7655 6.11729 11.4766 6.11729H42.5242C43.2352 6.11729 43.8444 6.6265 43.9724 7.32818L46.6663 22.0854H28.0551V10.5086C28.0551 9.92619 27.5828 9.4539 27.0004 9.4539C26.418 9.4539 25.9457 9.92619 25.9457 10.5086V22.0855H7.33441L10.0284 7.32818ZM2.64453 16.258H6.25388L5.19002 22.0854H2.64453V16.258Z" fill="#8592AB"/>
<path d="M38.8105 30.9336C38.8105 32.969 40.4665 34.625 42.502 34.625C44.5374 34.625 46.1934 32.969 46.1934 30.9336C46.1934 28.8982 44.5374 27.2422 42.502 27.2422C40.4665 27.2422 38.8105 28.8982 38.8105 30.9336ZM44.084 30.9336C44.084 31.8059 43.3743 32.5156 42.502 32.5156C41.6296 32.5156 40.9199 31.8059 40.9199 30.9336C40.9199 30.0613 41.6296 29.3516 42.502 29.3516C43.3743 29.3516 44.084 30.0612 44.084 30.9336Z" fill="white"/>
<path d="M7.80664 30.9336C7.80664 32.969 9.46261 34.625 11.498 34.625C13.5335 34.625 15.1895 32.969 15.1895 30.9336C15.1895 28.8982 13.5335 27.2422 11.498 27.2422C9.46261 27.2422 7.80664 28.8982 7.80664 30.9336ZM13.0801 30.9336C13.0801 31.8059 12.3704 32.5156 11.498 32.5156C10.6257 32.5156 9.91602 31.8059 9.91602 30.9336C9.91602 30.0613 10.6257 29.3516 11.498 29.3516C12.3704 29.3516 13.0801 30.0612 13.0801 30.9336Z" fill="white"/>
</svg>
