<svg width="54" height="54" viewBox="0 0 54 54" fill="none" xmlns="http://www.w3.org/2000/svg">
<g clip-path="url(#clip0_5225_97441)">
<path fill-rule="evenodd" clip-rule="evenodd" d="M19.0689 19.7455C19.0689 19.0101 18.4669 18.4082 17.7316 18.4082H10.2885C9.55308 18.4082 8.95117 19.0102 8.95117 19.7455V22.2898C8.95117 23.0252 9.55308 23.6271 10.2885 23.6271H17.7316C18.467 23.6271 19.0689 23.0251 19.0689 22.2898V19.7455Z" fill="#FF61A3"/>
<path fill-rule="evenodd" clip-rule="evenodd" d="M45.5767 19.7451C45.5767 19.0096 44.9747 18.4077 44.2394 18.4077H36.7963C36.0609 18.4077 35.459 19.0097 35.459 19.7451V22.2893C35.459 23.0247 36.061 23.6266 36.7963 23.6266H44.2394C44.9748 23.6266 45.5767 23.0246 45.5767 22.2893V19.7451Z" fill="#FF61A3"/>
<path d="M6.20885 45.7507C5.27344 45.2085 4.75623 44.5026 4.82309 43.8556C4.89407 43.1684 5.61833 42.5242 6.7133 42.1744C7.26817 41.9971 7.57425 41.4036 7.39695 40.8487C7.21966 40.2937 6.62619 39.988 6.07132 40.1652C4.1367 40.7832 2.88574 42.082 2.7249 43.639C2.56596 45.1783 3.4733 46.6264 5.21449 47.612C5.24623 47.63 5.27882 47.6463 5.31226 47.6608C7.40571 48.5743 7.74721 49.2141 7.76451 49.5142C7.79109 49.9771 7.11387 50.882 5.13285 52.0334C4.62924 52.326 4.45828 52.9715 4.75095 53.4752C4.9467 53.812 5.30034 54.0002 5.66378 54.0002C5.84371 54.0002 6.02607 53.954 6.19282 53.8571C8.75465 52.3682 9.95763 50.908 9.87041 49.3931C9.76441 47.5536 7.86966 46.4803 6.20885 45.7507Z" fill="#8592AB"/>
<path d="M13.5303 45.7507C12.5953 45.2081 12.0785 44.5018 12.1455 43.8547C12.2176 43.1573 12.9237 42.5292 14.0344 42.1742C14.5893 41.9969 14.8953 41.4035 14.7181 40.8486C14.5408 40.2936 13.9473 39.9879 13.3924 40.1651C11.459 40.7828 10.2084 42.0809 10.0473 43.6375C9.8879 45.177 10.7947 46.6255 12.5352 47.6118C12.567 47.6298 12.5998 47.6462 12.6334 47.6608C14.7284 48.575 15.0702 49.215 15.0874 49.5152C15.1141 49.978 14.4371 50.8825 12.4569 52.0334C11.9533 52.326 11.7823 52.9715 12.075 53.4752C12.2708 53.812 12.6244 54.0001 12.9878 54.0001C13.1678 54.0001 13.3501 53.9539 13.5169 53.8571C16.078 52.3686 17.2805 50.9087 17.1933 49.3941C17.0875 47.5545 15.1918 46.4807 13.5303 45.7507Z" fill="#8592AB"/>
<path d="M39.8384 45.7503C38.9037 45.2078 38.387 44.5019 38.4541 43.8548C38.5264 43.1573 39.2335 42.529 40.3455 42.1741C40.9003 41.9969 41.2066 41.4035 41.0294 40.8486C40.8522 40.2938 40.2587 39.9871 39.704 40.1647C37.7689 40.7823 36.5174 42.0806 36.3559 43.6375C36.1964 45.1769 37.103 46.6253 38.8435 47.6115C38.8755 47.6296 38.9084 47.6461 38.9421 47.6608C41.0373 48.5739 41.3793 49.214 41.3967 49.5142C41.4235 49.977 40.7462 50.8817 38.7652 52.0331C38.2616 52.3256 38.0906 52.9712 38.3833 53.4749C38.5791 53.8117 38.9327 53.9999 39.2962 53.9999C39.4761 53.9999 39.6584 53.9537 39.8252 53.8568C42.3872 52.3678 43.5901 50.9075 43.5026 49.3926C43.3962 47.5524 41.5003 46.4796 39.8384 45.7503Z" fill="#8592AB"/>
<path d="M47.1631 45.7507C46.2281 45.2081 45.7113 44.5018 45.7783 43.8547C45.8504 43.1573 46.5565 42.5292 47.6672 42.1742C48.2221 41.9969 48.5282 41.4035 48.3509 40.8486C48.1736 40.2936 47.58 39.9879 47.0252 40.1651C45.0918 40.7828 43.8412 42.0809 43.6801 43.6375C43.5207 45.177 44.4275 46.6255 46.168 47.6118C46.1998 47.6298 46.2326 47.6462 46.2662 47.6608C48.3599 48.5745 48.7017 49.2146 48.719 49.5149C48.7456 49.9777 48.069 50.8824 46.0895 52.0335C45.586 52.3262 45.4151 52.9718 45.7079 53.4754C45.9037 53.8121 46.2572 54.0001 46.6207 54.0001C46.8007 54.0001 46.983 53.9539 47.1499 53.857C49.7102 52.3682 50.9123 50.9081 50.8249 49.3935C50.7186 47.5538 48.8239 46.4804 47.1631 45.7507Z" fill="#8592AB"/>
<path d="M49.5478 13.9461C49.2993 13.5766 49.0254 13.239 48.7276 12.9338C49.334 12.7655 49.8662 12.44 50.2756 11.9759C50.8209 11.3574 51.1214 10.5366 51.1214 9.66463C51.1214 7.97418 49.9593 6.26284 47.7382 6.26284H43.6412L42.2951 2.63872C42.2874 2.61816 42.2791 2.5978 42.2703 2.57776C41.4569 0.746824 40.292 0 38.2491 0H16.2759C14.2311 0 13.0667 0.747352 12.257 2.57955C12.2484 2.59896 12.2404 2.61868 12.233 2.63872L10.9254 6.15895H6.89364C5.87703 6.15895 4.97548 6.54613 4.3549 7.24918C3.80889 7.86765 3.5082 8.68862 3.5082 9.56074C3.5082 10.9779 4.326 12.4091 5.8997 12.8351C5.56347 13.1659 5.25603 13.5361 4.98023 13.9461C3.83874 15.6434 3.23535 18.0312 3.23535 20.8513V30.9304C3.23535 31.9369 3.79444 32.8132 4.61425 33.2579V36.0722C4.61425 37.1345 5.58224 37.9988 6.77203 37.9988H13.2305C14.4203 37.9988 15.3883 37.1346 15.3883 36.0722V33.5686H38.2471V36.0723C38.2471 37.1346 39.2151 37.9989 40.4049 37.9989H46.8633C48.0515 37.9989 49.0182 37.1347 49.0182 36.0723V33.5469C50.2988 33.3827 51.2925 32.2724 51.2925 30.9304V20.8513C51.2926 18.0312 50.6892 15.6434 49.5478 13.9461ZM47.7381 8.37222C48.9506 8.37222 49.0119 9.44884 49.0119 9.66463C49.0119 10.0173 48.8958 10.3511 48.6934 10.5807C48.4732 10.8305 48.1517 10.957 47.738 10.957H45.3845L44.4244 8.37222H47.7381ZM14.1988 3.404C14.6252 2.44941 15.0107 2.10938 16.2759 2.10938H38.2491C39.514 2.10938 39.9005 2.44951 40.3294 3.40495L43.0959 10.8532H11.4321L14.1988 3.404ZM5.61757 9.56074C5.61757 9.20827 5.7338 8.87456 5.9363 8.64506C6.15694 8.3951 6.47904 8.26833 6.89364 8.26833H10.142L9.18189 10.8532H6.89364C5.67906 10.8532 5.61757 9.77653 5.61757 9.56074ZM13.279 35.886C13.2646 35.8882 13.2484 35.8895 13.2306 35.8895H6.77203C6.75421 35.8895 6.73797 35.8882 6.72362 35.8861V33.5686H13.279V35.886ZM46.9089 35.8864C46.8953 35.8884 46.8801 35.8895 46.8634 35.8895H40.405C40.3871 35.8895 40.3709 35.8882 40.3565 35.8861V33.5686H46.909V35.8864H46.9089ZM49.1832 30.9304C49.1832 31.2171 48.9573 31.4592 48.6901 31.4592H5.838C5.57064 31.4592 5.34473 31.2171 5.34473 30.9304V28.83H29.3486H49.1832V30.9304ZM24.2962 23.3362C24.2962 19.8578 25.7199 17.7219 26.7406 17.7219C27.7614 17.7219 29.1851 19.8578 29.1851 23.3362C29.1851 24.5625 28.9957 25.7388 28.646 26.7207H24.838C24.4867 25.7363 24.2962 24.5599 24.2962 23.3362ZM49.1832 26.7207H30.8538C31.1407 25.6791 31.2944 24.5207 31.2944 23.3362C31.2944 21.3873 30.8877 19.5385 30.1492 18.1307C29.2973 16.5069 28.0868 15.6125 26.7406 15.6125C25.3956 15.6125 24.1856 16.5067 23.3333 18.1305C22.5939 19.5389 22.1868 21.3878 22.1868 23.3362C22.1868 24.5191 22.3412 25.6775 22.6295 26.7207H5.34473V20.8514C5.34473 18.4522 5.82387 16.4715 6.73059 15.1235C7.70849 13.6695 9.14107 12.9626 11.1104 12.9626H43.4177C45.387 12.9626 46.8196 13.6694 47.7975 15.1235C48.7041 16.4715 49.1833 18.4522 49.1833 20.8514V26.7207H49.1832Z" fill="#8592AB"/>
</g>
<defs>
<clipPath id="clip0_5225_97441">
<rect width="54" height="54" fill="white"/>
</clipPath>
</defs>
</svg>
