<svg width="54" height="54" viewBox="0 0 54 54" fill="none" xmlns="http://www.w3.org/2000/svg">
<path d="M49.9623 30.3049C50.7992 30.1956 51.5894 29.8565 52.2452 29.3254C52.9011 28.7943 53.397 28.0918 53.6778 27.296C53.9586 26.5002 54.0135 25.6421 53.8362 24.817C53.6589 23.9919 53.2565 23.2321 52.6735 22.6218C50.986 20.867 51.076 21.2832 32.5585 20.3045C32.5585 19.5621 31.501 20.3833 39.871 15.6024C40.6585 15.1525 40.4335 15.0962 40.4335 5.06207L44.4835 2.02483C44.7222 1.84583 44.88 1.57934 44.9222 1.28399C44.9644 0.988649 44.8875 0.688641 44.7085 0.449966C44.5295 0.211292 44.263 0.0535025 43.9676 0.0113105C43.6722 -0.0308816 43.3722 0.0459795 43.1335 0.224985L38.6335 3.5997C37.9922 4.07216 38.1835 3.94842 38.1835 13.9713L32.2435 17.346C32.0832 16.8287 31.8442 16.3393 31.5347 15.8949C32.1005 15.3618 32.4649 14.6496 32.5662 13.8789C32.6676 13.1082 32.4997 12.3261 32.091 11.6648C31.6823 11.0035 31.0578 10.5036 30.3231 10.2495C29.5883 9.99547 28.7884 10.0028 28.0584 10.2704V1.12491C28.0584 0.826565 27.9399 0.540442 27.7289 0.329481C27.518 0.118521 27.2318 4.55626e-06 26.9334 4.55626e-06C26.6351 4.55626e-06 26.3489 0.118521 26.1379 0.329481C25.927 0.540442 25.8084 0.826565 25.8084 1.12491V10.3266C25.0785 10.0591 24.2786 10.0517 23.5438 10.3058C22.8091 10.5599 22.1846 11.0598 21.7759 11.721C21.3672 12.3823 21.1993 13.1644 21.3007 13.9352C21.402 14.7059 21.7664 15.418 22.3322 15.9511C22.0227 16.3955 21.7836 16.885 21.6234 17.4023L15.6834 14.0276C15.6834 3.95967 15.8634 4.1284 15.2334 3.65594L10.7334 0.281231C10.5006 0.166205 10.2353 0.135209 9.98227 0.193499C9.72928 0.251788 9.50424 0.395775 9.34531 0.601042C9.18638 0.80631 9.10334 1.06022 9.11027 1.31972C9.11721 1.57923 9.21369 1.82834 9.38336 2.02483L13.4334 5.06207C13.4334 14.95 13.1859 15.1862 13.9959 15.6024C22.3547 20.372 21.3084 19.5621 21.3084 20.3045L4.27584 21.2044C3.09425 21.2855 1.98973 21.8201 1.19318 22.6965C0.396632 23.5729 -0.0302858 24.7233 0.00167315 25.9071C0.0336321 27.091 0.521994 28.2166 1.36467 29.0488C2.20734 29.8809 3.3391 30.3552 4.52334 30.3724C18.5634 30.3724 16.2121 31.1711 21.3984 26.9977C21.5408 27.6712 21.8079 28.3122 22.1859 28.8875L11.5884 37.3693C11.1046 37.7518 11.2509 37.5943 10.1259 44.3887L4.83834 48.6184C4.63338 48.8118 4.50851 49.0751 4.48842 49.3562C4.46834 49.6373 4.55451 49.9157 4.72989 50.1364C4.90526 50.357 5.15707 50.5037 5.43548 50.5476C5.71389 50.5914 5.99862 50.5292 6.23334 50.3732L11.8584 45.8736C12.3421 45.4911 12.1959 45.6486 13.3209 38.8542L19.8684 33.6234L15.7959 41.0815C15.6046 41.4302 15.6609 41.0815 15.6609 47.9097L11.4871 52.0718C11.2753 52.2836 11.1563 52.5709 11.1563 52.8705C11.1563 53.1701 11.2753 53.4573 11.4871 53.6692C11.699 53.881 11.9863 54 12.2859 54C12.5855 54 12.8728 53.881 13.0846 53.6692C17.9334 48.8996 17.9334 49.0121 17.9334 48.3709V41.9027L22.6472 33.2634C22.6472 33.8934 22.5234 31.981 23.4347 48.4384C23.4347 49.3662 23.8033 50.2561 24.4594 50.9121C25.1156 51.5682 26.0055 51.9368 26.9334 51.9368C27.8614 51.9368 28.7513 51.5682 29.4074 50.9121C30.0636 50.2561 30.4322 49.3662 30.4322 48.4384L30.6122 45.1311C31.4465 46.7329 32.6214 48.1326 34.0543 49.2319C35.4872 50.3313 37.1434 51.1038 38.9066 51.495C40.6699 51.8863 42.4974 51.8869 44.2609 51.4968C46.0243 51.1067 47.6811 50.3353 49.1147 49.2369C50.5483 48.1384 51.7241 46.7395 52.5595 45.1383C53.3948 43.5371 53.8696 41.7725 53.9504 39.9684C54.0311 38.1642 53.716 36.3643 53.027 34.6949C52.3381 33.0254 51.292 31.5271 49.9623 30.3049ZM49.4335 23.4543C50.025 23.5052 50.575 23.779 50.9721 24.2202C51.3692 24.6614 51.5838 25.237 51.5724 25.8305C51.5609 26.424 51.3243 26.9909 50.9105 27.4165C50.4966 27.8421 49.9365 28.0945 49.3435 28.1226H46.6885C45.2127 27.441 43.6155 27.061 41.9908 27.005C40.3661 26.949 38.7465 27.218 37.2272 27.7964C36.6422 27.5377 36.901 27.6839 32.5585 24.2079V22.5543L49.4335 23.4543ZM23.5584 25.8728V19.1234C23.5584 18.2283 23.914 17.37 24.5469 16.7371C25.1799 16.1042 26.0383 15.7487 26.9334 15.7487C27.8285 15.7487 28.687 16.1042 29.3199 16.7371C29.9529 17.37 30.3084 18.2283 30.3084 19.1234V25.8728C30.3084 26.7678 29.9529 27.6262 29.3199 28.2591C28.687 28.892 27.8285 29.2475 26.9334 29.2475C26.0383 29.2475 25.1799 28.892 24.5469 28.2591C23.914 27.6262 23.5584 26.7678 23.5584 25.8728ZM25.0659 37.1218H28.8122L28.6772 39.3716H25.1897L25.0659 37.1218ZM28.4409 32.1498C29.2397 32.9822 28.9922 33.9159 28.9472 34.872H24.9309V33.6796C24.9191 33.2694 25.0301 32.8649 25.2498 32.5182C25.4695 32.1716 25.7879 31.8985 26.164 31.734C26.54 31.5696 26.9567 31.5213 27.3604 31.5954C27.7641 31.6695 28.1365 31.8625 28.4297 32.1498H28.4409ZM25.3134 41.6215H28.5534L28.4297 43.8713H25.4372L25.3134 41.6215ZM30.0272 30.5636C30.645 30.1574 31.1766 29.6333 31.5916 29.0214C32.0066 28.4096 32.297 27.7219 32.446 26.9977L34.8985 28.955C33.3914 29.9202 32.1129 31.2024 31.1522 32.7122C30.9919 31.9027 30.6013 31.1566 30.0272 30.5636ZM29.1834 12.3739C29.4115 12.3784 29.6328 12.4522 29.818 12.5853C30.0033 12.7185 30.1436 12.9048 30.2205 13.1195C30.2974 13.3343 30.3071 13.5673 30.2485 13.7878C30.1899 14.0082 30.0656 14.2056 29.8922 14.3538C28.3734 13.4089 28.0584 13.8251 28.0584 13.4989C28.0584 13.2005 28.177 12.9144 28.3879 12.7034C28.5989 12.4925 28.8851 12.3739 29.1834 12.3739ZM24.6834 12.3739C24.8411 12.3732 24.9972 12.4055 25.1416 12.469C25.286 12.5324 25.4154 12.6255 25.5215 12.7421C25.6276 12.8588 25.7079 12.9965 25.7574 13.1462C25.8068 13.296 25.8242 13.4544 25.8084 13.6113C25.162 13.7498 24.5451 14.0011 23.9859 14.3538C23.8131 14.2062 23.6891 14.0098 23.6301 13.7904C23.5711 13.571 23.5799 13.3389 23.6554 13.1246C23.7309 12.9103 23.8695 12.7239 24.053 12.5899C24.2365 12.4559 24.4563 12.3806 24.6834 12.3739ZM17.3371 27.3802C16.1221 28.3588 16.2121 28.1226 4.52334 28.1226C3.93036 28.0945 3.37023 27.8421 2.95639 27.4165C2.54256 26.9909 2.30596 26.424 2.29452 25.8305C2.28307 25.237 2.49765 24.6614 2.89477 24.2202C3.29189 23.779 3.84188 23.5052 4.43334 23.4543L21.3084 22.5543V24.2079L17.3371 27.3802ZM25.6847 48.3709L25.5609 46.1211H28.3059L28.1822 48.3709C28.1822 48.702 28.0506 49.0196 27.8164 49.2538C27.5823 49.488 27.2646 49.6195 26.9334 49.6195C26.6022 49.6195 26.2846 49.488 26.0504 49.2538C25.8162 49.0196 25.6847 48.702 25.6847 48.3709ZM41.5585 49.4958C39.556 49.4958 37.5984 48.902 35.9333 47.7896C34.2683 46.6771 32.9705 45.0959 32.2042 43.246C31.4378 41.396 31.2373 39.3604 31.628 37.3965C32.0187 35.4326 32.983 33.6287 34.399 32.2128C35.815 30.7969 37.6191 29.8327 39.5832 29.442C41.5473 29.0514 43.5831 29.2519 45.4332 30.0182C47.2833 30.7844 48.8646 32.0821 49.9772 33.747C51.0897 35.4119 51.6835 37.3693 51.6835 39.3716C51.6835 42.0567 50.6168 44.6318 48.718 46.5305C46.8192 48.4291 44.2438 49.4958 41.5585 49.4958Z" fill="#8592AB"/>
<ellipse cx="40.0001" cy="39.5113" rx="14.0001" ry="14.0054" fill="#FF61A3"/>
<path d="M45.3865 37.7465C44.8578 35.1367 43.8678 36.4754 45.4428 34.9005C45.5477 34.7956 45.6309 34.6711 45.6877 34.5341C45.7444 34.397 45.7736 34.2501 45.7736 34.1018C45.7736 33.9535 45.7444 33.8066 45.6877 33.6696C45.6309 33.5325 45.5477 33.408 45.4428 33.3031C45.3379 33.1982 45.2134 33.115 45.0763 33.0583C44.9393 33.0015 44.7924 32.9723 44.644 32.9723C44.4957 32.9723 44.3488 33.0015 44.2118 33.0583C44.0747 33.115 43.9502 33.1982 43.8453 33.3031C42.2478 34.9005 43.6765 33.9106 40.999 33.3594V32.122C40.999 31.8236 40.8805 31.5375 40.6695 31.3265C40.4585 31.1156 40.1724 30.9971 39.874 30.9971C39.5757 30.9971 39.2895 31.1156 39.0785 31.3265C38.8676 31.5375 38.749 31.8236 38.749 32.122V33.3594C36.139 33.8881 37.4778 34.878 35.9028 33.3031C35.6909 33.0913 35.4036 32.9723 35.104 32.9723C34.8044 32.9723 34.5171 33.0913 34.3053 33.3031C34.0934 33.5149 33.9744 33.8022 33.9744 34.1018C33.9744 34.4014 34.0934 34.6887 34.3053 34.9005C35.9028 36.4979 34.9128 35.0692 34.3615 37.7465H33.124C32.8257 37.7465 32.5395 37.865 32.3285 38.076C32.1175 38.2869 31.999 38.5731 31.999 38.8714C31.999 39.1698 32.1175 39.4559 32.3285 39.6668C32.5395 39.8778 32.8257 39.9963 33.124 39.9963H34.3615C34.8903 42.6061 35.8803 41.2675 34.3053 42.8423C34.1466 42.9997 34.0384 43.2007 33.9945 43.4198C33.9505 43.6388 33.9728 43.866 34.0585 44.0724C34.1442 44.2787 34.2894 44.4549 34.4756 44.5784C34.6618 44.7019 34.8806 44.7672 35.104 44.7659C35.6553 44.7659 35.8015 44.5297 36.7803 43.5623C38.9515 45.0021 38.749 43.461 38.749 45.6208C38.749 45.9192 38.8676 46.2053 39.0785 46.4163C39.2895 46.6272 39.5757 46.7457 39.874 46.7457C40.1724 46.7457 40.4585 46.6272 40.6695 46.4163C40.8805 46.2053 40.999 45.9192 40.999 45.6208C40.999 43.371 40.7065 45.0584 42.9678 43.5623C43.789 44.3834 44.0928 44.7659 44.644 44.7659C44.8723 44.7791 45.0991 44.7223 45.2943 44.6033C45.4896 44.4843 45.6439 44.3086 45.7367 44.0997C45.8296 43.8908 45.8566 43.6586 45.8141 43.4339C45.7717 43.2093 45.6617 43.0029 45.499 42.8423C43.9015 41.245 44.8915 42.6736 45.4428 39.9963H46.624C46.9224 39.9963 47.2086 39.8778 47.4195 39.6668C47.6305 39.4559 47.749 39.1698 47.749 38.8714C47.749 38.5731 47.6305 38.2869 47.4195 38.076C47.2086 37.865 46.9224 37.7465 46.624 37.7465H45.3865ZM39.874 42.2461C39.2065 42.2461 38.554 42.0482 37.999 41.6774C37.444 41.3066 37.0114 40.7795 36.7559 40.1629C36.5005 39.5462 36.4337 38.8677 36.5639 38.213C36.6941 37.5584 37.0155 36.9571 37.4875 36.4851C37.9595 36.0132 38.5609 35.6917 39.2156 35.5615C39.8703 35.4313 40.5489 35.4982 41.1656 35.7536C41.7823 36.009 42.3094 36.4415 42.6802 36.9965C43.0511 37.5515 43.249 38.204 43.249 38.8714C43.249 39.7664 42.8935 40.6248 42.2605 41.2577C41.6276 41.8906 40.7691 42.2461 39.874 42.2461Z" fill="white"/>
<path d="M38.7485 36.6211C38.45 36.6211 38.1637 36.7397 37.9527 36.9507C37.7416 37.1618 37.623 37.448 37.623 37.7465C37.623 38.045 37.7416 38.3313 37.9527 38.5423C38.1637 38.7534 38.45 38.872 38.7485 38.872C39.047 38.872 39.3332 38.7534 39.5443 38.5423C39.7553 38.3313 39.8739 38.045 39.8739 37.7465C39.8739 37.448 39.7553 37.1618 39.5443 36.9507C39.3332 36.7397 39.047 36.6211 38.7485 36.6211Z" fill="white"/>
<path d="M41.0004 38.8711C40.702 38.8711 40.4157 38.9897 40.2046 39.2007C39.9936 39.4118 39.875 39.698 39.875 39.9965C39.875 40.295 39.9936 40.5813 40.2046 40.7923C40.4157 41.0034 40.702 41.122 41.0004 41.122C41.2989 41.122 41.5852 41.0034 41.7962 40.7923C42.0073 40.5813 42.1259 40.295 42.1259 39.9965C42.1259 39.698 42.0073 39.4118 41.7962 39.2007C41.5852 38.9897 41.2989 38.8711 41.0004 38.8711Z" fill="white"/>
</svg>
