<svg width="48" height="48" viewBox="0 0 48 48" fill="none" xmlns="http://www.w3.org/2000/svg">
<path fill-rule="evenodd" clip-rule="evenodd" d="M36.6642 36.7229L33.5975 31.6598H33.5489C31.614 31.8589 30.0838 33.4235 29.9383 35.3739C28.3205 35.3739 26.9971 36.6974 26.9971 38.3151C26.9971 39.9328 28.3205 41.2563 29.9383 41.2563H47.5962V34.9999H46.6675C46.6675 31.6868 44.0921 28.9751 40.8339 28.7578H40.7401L41.6671 31.7205L36.6642 36.7229Z" fill="#DBE0E6"/>
<path d="M45.0542 3.1464C44.1617 2.25405 42.7642 1.75593 41.2242 1.77805C39.033 1.8104 36.8158 2.84756 35.1407 4.62416L30.2109 9.86342L16.7529 5.65357C16.4257 5.55108 16.0685 5.63901 15.826 5.88143L12.8868 8.82027C12.5268 9.18021 12.5267 9.76387 12.8867 10.1239C13.2467 10.4839 13.8303 10.4839 14.1903 10.124L16.735 7.57958L28.8067 11.3558L23.0538 17.4698L17.4287 14.0634C16.9934 13.7997 16.4265 13.939 16.1628 14.3744C15.8991 14.8098 16.0383 15.3766 16.4738 15.6403L21.762 18.8428L14.5635 26.4931L8.24887 24.8122C7.93151 24.7277 7.59258 24.8185 7.36002 25.0511L2.24464 30.1659C2.03678 30.3738 1.94055 30.6683 1.98544 30.9588C2.03042 31.2493 2.21127 31.5009 2.47222 31.6362L10.8936 36.0004L9.48623 37.4077C9.12629 37.7677 9.12629 38.3513 9.48623 38.7113C9.66616 38.8914 9.90213 38.9813 10.138 38.9813C10.3739 38.9813 10.6099 38.8914 10.7898 38.7113L12.1972 37.3039L16.5618 45.7244C16.6971 45.9854 16.9487 46.1661 17.2391 46.2111C17.2861 46.2184 17.3333 46.222 17.3802 46.222C17.6228 46.222 17.8578 46.1262 18.0319 45.952L23.1474 40.8372C23.3799 40.6047 23.4709 40.266 23.3864 39.9483L21.7064 33.6386L29.3579 26.439L35.8758 37.2002C36.0225 37.4424 36.2724 37.6038 36.5535 37.6378C36.8348 37.6717 37.1158 37.5747 37.316 37.3745L42.3188 32.3722C42.5613 32.1296 42.6492 31.7725 42.5468 31.4451L38.3369 17.9904L43.5771 13.0597C45.3532 11.3852 46.3903 9.16814 46.4227 6.97685C46.4453 5.43493 45.9466 4.03893 45.0542 3.1464ZM44.5771 6.70853C43.7504 6.7595 42.9382 6.45661 42.3411 5.85959C41.7441 5.26247 41.4414 4.45041 41.4922 3.62359C42.4371 3.65447 43.2505 3.95008 43.7506 4.45004C44.2506 4.95009 44.5464 5.764 44.5771 6.70853ZM40.6207 31.4628L36.8436 35.2395L30.7307 25.147L36.8446 19.3942L40.6207 31.4628ZM42.3131 11.7173L20.0425 32.6727C19.7957 32.9049 19.6963 33.2538 19.7834 33.5811L21.4682 39.9089L17.619 43.7577L13.5648 35.936L15.9049 33.596C16.2648 33.2359 16.2648 32.6524 15.9049 32.2923C15.5449 31.9323 14.9613 31.9323 14.6012 32.2923L12.2611 34.6324L4.43879 30.5787L8.28777 26.7301L14.6206 28.4159C14.9478 28.5031 15.2968 28.4035 15.529 28.1568L36.4826 5.88807C37.395 4.92032 38.496 4.22808 39.6432 3.87892C39.6621 5.09997 40.1512 6.27668 41.0375 7.16304C41.9239 8.0494 43.1005 8.5384 44.3216 8.5572C43.9725 9.70451 43.2804 10.8054 42.3131 11.7173Z" fill="#8592AB"/>
<path d="M39.9521 8.2486C39.3622 7.65877 38.6245 7.23282 37.8187 7.01704C37.3272 6.88514 36.8216 7.17706 36.6899 7.66882C36.558 8.16048 36.8499 8.66597 37.3416 8.79769C37.8351 8.92996 38.2871 9.19082 38.6484 9.55215C39.0097 9.91348 39.2707 10.3654 39.403 10.859C39.5133 11.2708 39.8858 11.5424 40.2927 11.5424C40.3717 11.5424 40.452 11.5322 40.5319 11.5108C41.0236 11.379 41.3154 10.8735 41.1836 10.3818C40.9677 9.57611 40.5419 8.83852 39.9521 8.2486Z" fill="#8592AB"/>
<path fill-rule="evenodd" clip-rule="evenodd" d="M19.1039 14.3865C19.1039 12.6659 17.6962 11.2583 15.9757 11.2583H15.301C15.301 7.80299 12.5 5.00195 9.04464 5.00195C6.76569 5.00195 4.77128 6.22061 3.67753 8.04181C3.33473 7.94724 2.97377 7.89645 2.60092 7.89645C1.79005 7.89645 1.03513 8.13556 0.402344 8.54675V17.5146H15.9962C17.7026 17.5146 19.1039 16.0867 19.1039 14.3865Z" fill="#FF61A3"/>
</svg>
