<svg width="48" height="48" viewBox="0 0 48 48" fill="none" xmlns="http://www.w3.org/2000/svg">
<path fill-rule="evenodd" clip-rule="evenodd" d="M36.6647 36.7229L33.598 31.6598H33.5494C31.6145 31.8589 30.0843 33.4235 29.9388 35.3739C28.321 35.3739 26.9976 36.6974 26.9976 38.3151C26.9976 39.9328 28.321 41.2563 29.9388 41.2563H47.5967V34.9999H46.668C46.668 31.6868 44.0926 28.9751 40.8344 28.7578H40.7406L41.6676 31.7205L36.6647 36.7229Z" fill="#DBE0E6"/>
<path d="M45.0545 3.14689C44.1619 2.25453 42.7645 1.75642 41.2245 1.77854C39.0332 1.81089 36.816 2.84805 35.141 4.62465L30.2112 9.86391L16.7531 5.65406C16.4259 5.55156 16.0687 5.6395 15.8262 5.88192L12.887 8.82076C12.5271 9.1807 12.527 9.76436 12.8869 10.1244C13.247 10.4843 13.8305 10.4844 14.1906 10.1245L16.7353 7.58007L28.807 11.3563L23.054 17.4703L17.429 14.0639C16.9936 13.8002 16.4268 13.9395 16.163 14.3749C15.8993 14.8103 16.0385 15.3771 16.474 15.6408L21.7622 18.8433L14.5637 26.4936L8.24911 24.8127C7.93175 24.7282 7.59282 24.819 7.36026 25.0516L2.24488 30.1664C2.03703 30.3743 1.94079 30.6688 1.98568 30.9593C2.03067 31.2498 2.21151 31.5014 2.47246 31.6367L10.8938 36.0009L9.48648 37.4082C9.12653 37.7682 9.12653 38.3518 9.48648 38.7118C9.6664 38.8919 9.90237 38.9818 10.1383 38.9818C10.3741 38.9818 10.6101 38.8919 10.79 38.7118L12.1975 37.3044L16.5621 45.7249C16.6974 45.9859 16.9489 46.1666 17.2394 46.2116C17.2864 46.2189 17.3336 46.2225 17.3805 46.2225C17.623 46.2225 17.8581 46.1267 18.0322 45.9525L23.1476 40.8377C23.3801 40.6052 23.4712 40.2665 23.3867 39.9487L21.7067 33.6391L29.3582 26.4395L35.8761 37.2007C36.0227 37.4429 36.2726 37.6043 36.5538 37.6383C36.8351 37.6722 37.116 37.5752 37.3162 37.375L42.3191 32.3726C42.5616 32.1301 42.6494 31.773 42.547 31.4456L38.3372 17.9909L43.5774 13.0602C45.3534 11.3857 46.3906 9.16863 46.4229 6.97734C46.4456 5.43542 45.9468 4.03942 45.0545 3.14689ZM44.5774 6.70901C43.7507 6.75999 42.9384 6.4571 42.3414 5.86008C41.7444 5.26296 41.4417 4.45089 41.4924 3.62408C42.4373 3.65496 43.2508 3.95057 43.7508 4.45053C44.2509 4.95058 44.5467 5.76449 44.5774 6.70901ZM40.6209 31.4632L36.8438 35.24L30.7309 25.1475L36.8449 19.3947L40.6209 31.4632ZM42.3134 11.7178L20.0427 32.6732C19.796 32.9054 19.6965 33.2543 19.7836 33.5816L21.4685 39.9094L17.6192 43.7582L13.5651 35.9365L15.9051 33.5965C16.2651 33.2364 16.2651 32.6529 15.9051 32.2928C15.5452 31.9328 14.9615 31.9328 14.6015 32.2928L12.2613 34.6329L4.43903 30.5792L8.28801 26.7306L14.6208 28.4164C14.9481 28.5036 15.297 28.404 15.5292 28.1573L36.4829 5.88856C37.3952 4.92081 38.4963 4.22857 39.6435 3.87941C39.6624 5.10046 40.1515 6.27717 41.0377 7.16353C41.9241 8.04989 43.1007 8.53888 44.3219 8.55769C43.9728 9.705 43.2806 10.8059 42.3134 11.7178Z" fill="#8592AB"/>
<path d="M39.9518 8.24933C39.362 7.6595 38.6243 7.23356 37.8185 7.01777C37.3269 6.88587 36.8213 7.17779 36.6896 7.66955C36.5578 8.16121 36.8496 8.6667 37.3414 8.79842C37.8349 8.9307 38.2868 9.19155 38.6482 9.55288C39.0095 9.91421 39.2704 10.3661 39.4027 10.8597C39.5131 11.2715 39.8855 11.5431 40.2925 11.5431C40.3715 11.5431 40.4518 11.5329 40.5317 11.5115C41.0234 11.3797 41.3152 10.8742 41.1834 10.3826C40.9675 9.57685 40.5416 8.83926 39.9518 8.24933Z" fill="#8592AB"/>
<path fill-rule="evenodd" clip-rule="evenodd" d="M19.1043 14.3872C19.1043 12.6666 17.6967 11.259 15.9762 11.259H15.3015C15.3015 7.80372 12.5005 5.00269 9.04513 5.00269C6.76618 5.00269 4.77177 6.22134 3.67802 8.04255C3.33522 7.94797 2.97426 7.89719 2.6014 7.89719C1.79054 7.89719 1.03562 8.13629 0.402832 8.54749V17.5153H15.9966C17.7031 17.5153 19.1043 16.0875 19.1043 14.3872Z" fill="#FF61A3"/>
</svg>
