<svg width="48" height="48" viewBox="0 0 48 48" fill="none" xmlns="http://www.w3.org/2000/svg">
<g clip-path="url(#clip0_5208_119823)">
<path d="M36.4645 21.7132C36.4645 21.7132 48.0001 16.6841 48.0001 9.0736C48.0001 5.55947 45.143 2.71069 41.6187 2.71069C39.501 2.71069 37.6252 3.73997 36.4645 5.32341C35.3037 3.73997 33.428 2.71069 31.3103 2.71069C27.786 2.71069 24.929 5.55947 24.929 9.0736C24.929 16.6841 36.4645 21.7132 36.4645 21.7132Z" fill="#FF61A3"/>
<path d="M39.8724 14.0925C39.8724 12.2135 38.3436 10.6849 36.4644 10.6849C34.5853 10.6849 33.0564 12.2135 33.0564 14.0925C33.0564 15.6465 34.1021 16.9608 35.5269 17.3689V37.6957C35.5269 40.8489 32.9611 43.4143 29.8072 43.4143C26.6533 43.4143 24.0875 40.8489 24.0875 37.6957V35.1128C24.0875 33.104 22.4529 31.4698 20.4439 31.4698C18.4348 31.4698 16.8004 33.104 16.8004 35.1128V38.9238C16.8004 40.1568 15.797 41.16 14.5637 41.16C13.3304 41.16 12.3271 40.1568 12.3271 38.9238V31.7222C13.7253 31.3154 14.7501 30.0228 14.7501 28.4952C14.7501 27.8991 14.594 27.3388 14.3206 26.8529H15.1221C19.3442 26.8529 22.7791 23.4184 22.7791 19.197V8.08667C22.7791 7.56889 22.3593 7.14917 21.8416 7.14917H19.3525V5.02686C19.3525 4.50907 18.9327 4.08936 18.415 4.08936H14.9112C14.3935 4.08936 13.9737 4.50907 13.9737 5.02686V10.7032C13.9737 11.221 14.3935 11.6407 14.9112 11.6407H18.415C18.9327 11.6407 19.3525 11.221 19.3525 10.7032V9.02417H20.9041V19.197C20.9041 22.3846 18.3103 24.9779 15.1221 24.9779H7.65713C4.46888 24.9779 1.875 22.3846 1.875 19.197V9.02417H3.45038V10.7032C3.45038 11.221 3.87019 11.6407 4.38788 11.6407H7.89169C8.40938 11.6407 8.82919 11.221 8.82919 10.7032V5.02686C8.82919 4.50907 8.40938 4.08936 7.89169 4.08936H4.38788C3.87019 4.08936 3.45038 4.50907 3.45038 5.02686V7.14917H0.9375C0.419813 7.14917 0 7.56889 0 8.08667V19.197C0 23.4184 3.435 26.8529 7.65713 26.8529H8.4585C8.18513 27.3388 8.02903 27.8991 8.02903 28.4952C8.02903 30.0228 9.05381 31.3155 10.4521 31.7222V38.9238C10.4521 41.1906 12.2966 43.035 14.5638 43.035C16.8309 43.035 18.6754 41.1907 18.6754 38.9238V35.1128C18.6754 34.1379 19.4688 33.3448 20.444 33.3448C21.4191 33.3448 22.2125 34.1379 22.2125 35.1128V37.6957C22.2125 41.8829 25.6194 45.2893 29.8072 45.2893C33.995 45.2893 37.4019 41.8829 37.4019 37.6957V17.3689C38.8267 16.9607 39.8724 15.6464 39.8724 14.0925ZM17.4774 9.76564H15.8486V5.96436H17.4774V9.76564ZM5.32538 5.96436H6.95419V9.76573H5.32538V5.96436ZM9.90403 28.4952C9.90403 27.6764 10.5704 27.0102 11.3896 27.0102C12.2086 27.0102 12.8751 27.6764 12.8751 28.4952C12.8751 29.3141 12.2087 29.9803 11.3896 29.9803C10.5704 29.9802 9.90403 29.3141 9.90403 28.4952ZM36.4644 15.625C35.6191 15.625 34.9314 14.9375 34.9314 14.0925C34.9314 13.2474 35.6191 12.5599 36.4644 12.5599C37.3098 12.5599 37.9974 13.2473 37.9974 14.0925C37.9974 14.9374 37.3098 15.625 36.4644 15.625Z" fill="#8592AB"/>
<mask id="mask0_5208_119823" style="mask-type:alpha" maskUnits="userSpaceOnUse" x="0" y="4" width="40" height="42">
<path d="M39.8724 14.0925C39.8724 12.2135 38.3436 10.6849 36.4644 10.6849C34.5853 10.6849 33.0564 12.2135 33.0564 14.0925C33.0564 15.6465 34.1021 16.9608 35.5269 17.3689V37.6957C35.5269 40.8489 32.9611 43.4143 29.8072 43.4143C26.6533 43.4143 24.0875 40.8489 24.0875 37.6957V35.1128C24.0875 33.104 22.4529 31.4698 20.4439 31.4698C18.4348 31.4698 16.8004 33.104 16.8004 35.1128V38.9238C16.8004 40.1568 15.797 41.16 14.5637 41.16C13.3304 41.16 12.3271 40.1568 12.3271 38.9238V31.7222C13.7253 31.3154 14.7501 30.0228 14.7501 28.4952C14.7501 27.8991 14.594 27.3388 14.3206 26.8529H15.1221C19.3442 26.8529 22.7791 23.4184 22.7791 19.197V8.08667C22.7791 7.56889 22.3593 7.14917 21.8416 7.14917H19.3525V5.02686C19.3525 4.50907 18.9327 4.08936 18.415 4.08936H14.9112C14.3935 4.08936 13.9737 4.50907 13.9737 5.02686V10.7032C13.9737 11.221 14.3935 11.6407 14.9112 11.6407H18.415C18.9327 11.6407 19.3525 11.221 19.3525 10.7032V9.02417H20.9041V19.197C20.9041 22.3846 18.3103 24.9779 15.1221 24.9779H7.65713C4.46888 24.9779 1.875 22.3846 1.875 19.197V9.02417H3.45038V10.7032C3.45038 11.221 3.87019 11.6407 4.38788 11.6407H7.89169C8.40938 11.6407 8.82919 11.221 8.82919 10.7032V5.02686C8.82919 4.50907 8.40938 4.08936 7.89169 4.08936H4.38788C3.87019 4.08936 3.45038 4.50907 3.45038 5.02686V7.14917H0.9375C0.419813 7.14917 0 7.56889 0 8.08667V19.197C0 23.4184 3.435 26.8529 7.65713 26.8529H8.4585C8.18513 27.3388 8.02903 27.8991 8.02903 28.4952C8.02903 30.0228 9.05381 31.3155 10.4521 31.7222V38.9238C10.4521 41.1906 12.2966 43.035 14.5638 43.035C16.8309 43.035 18.6754 41.1907 18.6754 38.9238V35.1128C18.6754 34.1379 19.4688 33.3448 20.444 33.3448C21.4191 33.3448 22.2125 34.1379 22.2125 35.1128V37.6957C22.2125 41.8829 25.6194 45.2893 29.8072 45.2893C33.995 45.2893 37.4019 41.8829 37.4019 37.6957V17.3689C38.8267 16.9607 39.8724 15.6464 39.8724 14.0925ZM17.4774 9.76564H15.8486V5.96436H17.4774V9.76564ZM5.32538 5.96436H6.95419V9.76573H5.32538V5.96436ZM9.90403 28.4952C9.90403 27.6764 10.5704 27.0102 11.3896 27.0102C12.2086 27.0102 12.8751 27.6764 12.8751 28.4952C12.8751 29.3141 12.2087 29.9803 11.3896 29.9803C10.5704 29.9802 9.90403 29.3141 9.90403 28.4952ZM36.4644 15.625C35.6191 15.625 34.9314 14.9375 34.9314 14.0925C34.9314 13.2474 35.6191 12.5599 36.4644 12.5599C37.3098 12.5599 37.9974 13.2473 37.9974 14.0925C37.9974 14.9374 37.3098 15.625 36.4644 15.625Z" fill="#8592AB"/>
</mask>
<g mask="url(#mask0_5208_119823)">
<rect x="32.1562" y="10.0312" width="9.75" height="11.4375" fill="white"/>
</g>
</g>
<defs>
<clipPath id="clip0_5208_119823">
<rect width="48" height="48" fill="white"/>
</clipPath>
</defs>
</svg>
