{
    "_id": "60dd8426c8718dd12b8166ae",
    "component_name": "CategoryProtect",
    "component_type": "CategoryProtect",
    "define": {
      "title": {
        "_type": "string",
        "name": "Bạn muốn bảo vệ gì hôm nay ?",
        "_editable": true,
        "isActive": false
      },
      "properties": {
        "_type": "array",
        "_editable": true,
        "_ite": {
            "arrBaoVeBanVaGiaDinh": [
            {
              "id":1,
                "title": "Bảo vệ bạn và gia đình",
                "value": [
                    {
                        "id":1,
                        "title": "Bảo vệ cho sức khỏe",
                        "image": "/images/baovebanvagiadinh/heat.svg",
                        "link": "/bao-hiem-suc-khoe-va-gia-dinh"
                      },
                      {
                        "id":2,
                        "title": "Bảo vệ xe cơ giới",
                        "image": "/images/baovebanvagiadinh/xecogioi.png",
                        "link": "/bao-hiem-vbi/bao-hiem-gia-dinh"
                      },
                      {
                        "id":3,
                        "title": "Bảo vệ trước bệnh hiểm nghèo",
                        "image": "/images/baovebanvagiadinh/medical-report1.svg",
                        "link": "/bao-hiem-vbi/bao-hiem-gia-dinh"
                      },
                      {
                        "id":4,
                        "title": "Bảo vệ trước tai nạn",
                        "image": "/images/baovebanvagiadinh/tainan.png",
                        "link": "/bao-hiem-vbi/bao-hiem-gia-dinh"
                      },
                      {
                        "id":5,
                        "title": "Bảo vệ khi đi du lịch",
                        "image": "/images/baovebanvagiadinh/airplane1.svg",
                        "link": "/bao-hiem-vbi/bao-hiem-gia-dinh"
                      },
                      {
                        "id":6,
                        "title": "Bảo vệ trước dịch bệnh",
                        "image": "/images/baovebanvagiadinh/vaccine1.svg",
                        "link": "/bao-hiem-vbi/bao-hiem-gia-dinh"
                      }
                ]
            },
            {
              "id":2,
                "title": "Bảo vệ doanh nghiệp của bạn",
                "value": [
                    {
                        "id":1,
                        "title": "Bảo vệ xe cơ giới",
                        "image": "/images/sanpham/bh-xe-co-gioi.svg",
                        "link": "/bao-hiem-xe-co-gioi"
                      },
                      {
                        "id":2,
                        "title": "Bảo vệ tài sản, cháy nổ",
                        "image": "/images/sanpham/bh-bve-tai-san.svg",
                        "link": "/bao-hiem-tai-san"
                      },
                      {
                        "id":3,
                        "title": "Bảo vệ công trình xây dựng",
                        "image": "/images/sanpham/bh-bve-cong-trinh.svg",
                        "link": "/bao-hiem-ky-thuat"
                      },
                      {
                        "id":4,
                        "title": "Bảo vệ tàu biển",
                        "image": "/images/sanpham/bh-bve-tau-bien.svg",
                        "link": "/bao-hiem-hang-hoa-va-tau-thuyen"
                      },
                      {
                        "id":5,
                        "title": "Bảo vệ sức khỏe nhân viên",
                        "image": "/images/sanpham/bh-bve-suc-khoe-nvien.svg",
                        "link": "/bao-hiem-suc-khoe-an-phat"
                      },
                      {
                        "id":6,
                        "title": "Bảo hiểm năng lượng",
                        "image": "/images/sanpham/bh-nang-luong.svg",
                        "link": "/bao-hiem-nang-luong"
                      },
                      {
                        "id":7,
                        "title": "Bảo hiểm trách nhiệm",
                        "image": "/images/sanpham/bh-trach-nhiem.svg",
                        "link": "/bao-hiem-trach-nhiem"
                      }
                ]
            }
          ]
        }
      }
    }
  }