{
    "_id": "60dd8426c8718dd12b8166ae",
    "component_name": "Tải ứng ụng app MyVBI",
    "component_type": "Dowload app MyVBI",
    "define": {
        "title": {
            "_type": "string",
            "name": "Tải ứng ụng app MyVBI",
            "data_src": "/images/MaskGroup.png",
            "_editable": true,
            "isActive": false
        },
        "properties": {
            "_type": "array",
            "_editable": true,
            "_ite": {
                "visible": {
                    "logo": {
                        "src": "/images/logo_f.png",
                        "alt": ""
                    },
                    "address": [
                            {
                                "id": 1,
                                "class": "footer__listAddress__li footer__listAddress__map",
                                "title": "Tầng 10 -11, tòa nhà 126 Đội Cấn Quận Ba Đình, Hà Nội"
                            },
                            {
                                "id": 2,
                                "class": "footer__listAddress__li footer__listAddress__map",
                                "title": "Tầng 4, tòa nhà Icon 4, số 243A Đê La Thành, Láng Thượng, Đống Đa, Hà Nội"
                            },
                            {
                                "id": 3,
                                "class": "footer__listAddress__li footer__listAddress__phone",
                                "title": "1900.1566"
                            }
                        ],
                    "app": {
                        "title": "Tải xuống ứng dụng của VBI",
                        "img": {
                            "href": "/images/qrcode.png",
                            "alt": ""
                        },
                        "value": [
                            {
                                "link": "https://play.google.com/store/apps/details?id=com.vbi.ecom",
                                "target": "_blank",
                                "desktop": {
                                    "src": "/images/googleplay.svg",
                                    "alt": "icon",
                                    "width": 164,
                                    "height": 48,
                                    "style": {
                                        "display": "flex"
                                    }
                                }
                            },
                            {
                                "link": "https://apps.apple.com/us/app/my-vbi/id1299006208",
                                "target": "_blank",
                                "desktop": {
                                    "src": "/images/appstore.svg",
                                    "alt": "icon",
                                    "width": 164,
                                    "height": 48,
                                    "style": {
                                        "display": "flex"
                                    }
                                }
                            }
                        ],
                        "follow": {
                            "title": "Theo dõi VBI qua mạng xã hội",
                            "value": [
                                {
                                    "href":"https://www.facebook.com/BAOHIEM.VBI",
                                    "target":"_blank",
                                    "className":"footer__iconSocial footer__iconSocial--fb",
                                    "data_uk_tooltip":"Facebook"
                                },
                                {
                                    "href":"http://zalo.me/4087784932765661863",
                                    "target":"_blank",
                                    "className":"footer__iconSocial footer__iconSocial--zalo",
                                    "data_uk_tooltip":"Zalo"
                                },
                                {
                                    "href":"https://www.instagram.com/baohiemvietinbank.vbi/",
                                    "target":"_blank",
                                    "className":"footer__iconSocial footer__iconSocial--in",
                                    "data_uk_tooltip":"Instagram"
                                },
                                {
                                    "href":"https://www.youtube.com/c/VBITV",
                                    "target":"_blank",
                                    "className":"footer__iconSocial footer__iconSocial--youtube",
                                    "data_uk_tooltip":"Youtube"
                                },
                                {
                                    "href":"https://www.tiktok.com/@baohiemvietinbank",
                                    "target":"_blank",
                                    "className":"footer__iconSocial footer__iconSocial--tiktok",
                                    "data_uk_tooltip":"Tiktok"
                                }
                            ]
                        },
                        "Expand": [
                            {
                                "title": "Công ty",
                                "value": [
                                    {
                                        "title":"Về chúng tôi",
                                        "href":"/gioi-thieu/vbi",
                                        "isActive": "false"
                                    },
                                    {
                                        "title":"Cơ cấu quản trị",
                                        "href":"/gioi-thieu/co-cau-quan-tri",
                                        "isActive": "false"
                                    },
                                    {
                                        "title":"Cơ hội nghề nghiệp",
                                        "href":"http://tuyendung.evbi.vn/",
                                        "isActive": "false"
                                    },
                                    {
                                        "title":"Quan hệ đối tác",
                                        "href":"/uu-dai-tu-doi-tac",
                                        "isActive": "false"
                                    }
                                ]
                            },
                            {
                                "title": "Hỗ trợ",
                                "value": [
                                    {
                                        "title":"Dịch vụ khách hàng",
                                        "href":"#!"
                                    },
                                    {
                                        "title":"Yêu cầu bồi thường",
                                        "href":"/boi-thuong"
                                    },
                                    {
                                        "title":"Quy tắc bảo hiểm",
                                        "href":"/quy-tac-bao-hiem"
                                    }
                                ]
                            },
                            {
                                "title": "Tiện ích",
                                "value": [
                                    {
                                        "title":"Mã thanh toán",
                                        "href":"https://m.evbi.vn/ma-thanh-toan",
                                        "isActive": "false"
                                    },
                                    {
                                        "title":"Garage gần bạn",
                                        "href":"/tien-ich/gara-o-to-bao-lanh",
                                        "isActive": "false"
                                    },
                                    {
                                        "title":"Bệnh viện bảo lãnh",
                                        "href":"/tien-ich/benh-vien-bao-lanh-vien-phi",
                                        "isActive": "false"
                                    },
                                    {
                                        "title":"Liên hệ CSGT",
                                        "href":"/tien-ich/danh-ba-canh-sat",
                                        "isActive": "false"
                                    },
                                    {
                                        "title":"Trung tâm đăng kiểm",
                                        "href":"/tien-ich/dang-kiem-xe-o-to",
                                        "isActive": "false"
                                    },
                                    {
                                        "title":"Trung tâm cứu hộ",
                                        "href":"/tien-ich/cuu-ho-xe-o-to",
                                        "isActive": "false"
                                    },
                                    {
                                        "title":"VBI Gần bạn",
                                        "href":"/tien-ich/vbi-thanh-vien",
                                        "isActive": "false"
                                    }
                                ]
                            }
                        ],
                        "product_family": {
                            "title": "Sản phẩm bảo hiểm",
                            "value": [
                                {
                                    "class": "uk-width-expand",
                                    "isActive": true,
                                    "title": "Sản phẩm cho bạn và gia đình",
                                    "values": [
                                        {
                                            "class": "footer__nav uk-nav uk-nav-default",
                                            "value": [
                                                {
                                                    "href":"https://m.evbi.vn/bao-hiem-suc-khoe-vbi-care",
                                                    "target":"_blank",
                                                    "title":"Bảo hiểm Sức khỏe",
                                                    "isActive": false
                                                },
                                                {
                                                    "href":"https://m.evbi.vn/landing-bao-hiem-ung-thu",
                                                    "target":"_blank",
                                                    "title":"Bảo hiểm ung thư",
                                                    "isActive": false
                                                },
                                                {
                                                    "href":"https://m.evbi.vn/landing-bao-hiem-ung-thu-vu",
                                                    "target":"_blank",
                                                    "title":"Bảo hiểm ung thư vú",
                                                    "isActive": false
                                                },
                                                {
                                                    "href":"https://m.evbi.vn/bao-hiem-suc-khoe-cong-dong",
                                                    "target":"_blank",
                                                    "title":"Bảo hiểm vì cộng đồng",
                                                    "isActive": false
                                                },
                                                {
                                                    "href":"https://m.evbi.vn/landing-bao-hiem-tai-nan-con-nguoi",
                                                    "target":"_blank",
                                                    "title":"Bảo hiểm Tai nạn con người",
                                                    "isActive": false
                                                }
                                            ]
                                        },
                                        {
                                            "class": "footer__nav uk-nav uk-nav-default",
                                            "value": [
                                                {
                                                    "href":"https://m.evbi.vn/landing-bao-hiem-vat-chat-xe-o-to",
                                                    "target":"_blank",
                                                    "title":"Bảo hiểm vật chất ô tô",
                                                    "isActive": false
                                                },
                                                {
                                                    "href":"https://m.evbi.vn/landing-bao-hiem-vat-chat-xe-may",
                                                    "target":"_blank",
                                                    "title":"Bảo hiểm vật chất xe máy",
                                                    "isActive": false
                                                },
                                                {
                                                    "href":"https://m.evbi.vn/landing-bao-hiem-o-to",
                                                    "target":"_blank",
                                                    "title":"Bảo hiểm TNDS ô tô",
                                                    "isActive": false
                                                },
                                                {
                                                    "href":"https://m.evbi.vn/landing-bao-hiem-xe-may",
                                                    "target":"_blank",
                                                    "title":"Bảo hiểm TNDS xe máy",
                                                    "isActive": false
                                                }
                                            ]
                                        },
                                        {
                                            "class": "footer__nav uk-nav uk-nav-default",
                                            "value": [
                                                {
                                                    "href":"https://m.evbi.vn/landing-bao-hiem-du-lich-noi-dia",
                                                    "target":"_blank",
                                                    "title":"Bảo hiểm du lịch nội địa",
                                                    "isActive": false
                                                },
                                                {
                                                    "href":"https://m.evbi.vn/landing-bao-hiem-du-lich-quoc-te",
                                                    "target":"_blank",
                                                    "title":"Bảo hiểm du lịch quốc tế",
                                                    "isActive": false
                                                }
                                            ]
                                        }
                                    ]
                                },
                                {
                                    "class": "uk-width-1-4@m",
                                    "isActive": false,
                                    "title": "Sản phẩm doanh nghiệp",
                                    "values": [
                                        {
                                            "class": "footer__nav uk-nav uk-nav-default",
                                            "value": [
                                                {
                                                    "href":"/bao-hiem-suc-khoe-an-phat",
                                                    "title":"Sức khỏe nhân viên",
                                                    "isActive": true
                                                },
                                                {
                                                    "href":"/bao-hiem-xe-co-gioi",
                                                    "title":"Bảo hiểm xe cơ giới",
                                                    "isActive": true
                                                },
                                                {
                                                    "href":"/bao-hiem-hang-hoa-va-tau-thuyen",
                                                    "title":"Bảo hiểm tàu biển",
                                                    "isActive": true
                                                },
                                                {
                                                    "href":"/bao-hiem-ky-thuat",
                                                    "title":"Bảo vệ công trình xây dựng",
                                                    "isActive": true
                                                },
                                                {
                                                    "href":"/bao-hiem-trach-nhiem",
                                                    "title":"Bảo hiểm trách nhiệm",
                                                    "isActive": true
                                                },
                                                {
                                                    "href":"/bao-hiem-nang-luong",
                                                    "title":"Bảo hiểm năng lượng",
                                                    "isActive": true
                                                }
                                            ]
                                        }
                                    ]
                                }
                            ]
                        }
                    }
                }
            }
        }
    }
}