<svg width="48" height="48" viewBox="0 0 48 48" fill="none" xmlns="http://www.w3.org/2000/svg">
<path d="M40.4468 18.2503L36.7395 19.5704L36.8477 15.6319L34.4484 12.5092L38.2224 11.3952L40.4468 8.14526L42.6711 11.3952L46.4451 12.5092L44.0457 15.6319L44.1539 19.5704L40.4468 18.2503Z" fill="#FF61A3"/>
<path d="M7.55325 18.2503L3.84609 19.5704L3.95428 15.6319L1.55493 12.5092L5.32893 11.3952L7.55325 8.14526L9.77765 11.3952L13.5517 12.5092L11.1523 15.6319L11.2605 19.5704L7.55325 18.2503Z" fill="#FF61A3"/>
<path d="M23.9999 12.9482L19.2496 14.6396L19.3883 9.59306L16.3138 5.59181L21.1497 4.16437L23.9999 0L26.8501 4.16437L31.686 5.59181L28.6116 9.59306L28.7502 14.6396L23.9999 12.9482Z" fill="#FF61A3"/>
<path d="M24 16.3687C17.0527 16.3687 11.4004 22.0208 11.4004 28.9683V37.0882C11.4004 40.3357 12.4934 42.427 14.6509 43.3139C14.5903 43.5746 14.5584 43.8462 14.5584 44.1251V47.0625C14.5584 47.5803 14.9782 48 15.4959 48H32.5042C33.0219 48 33.4417 47.5803 33.4417 47.0625V44.125C33.4417 43.8462 33.4096 43.5746 33.3491 43.314C35.5066 42.4275 36.5996 40.336 36.5996 37.0882V28.9683C36.5996 22.0208 30.9474 16.3687 24 16.3687ZM31.5667 46.125H16.4334V44.125C16.4334 43.1822 17.2004 42.4152 18.1433 42.4152H29.8567C30.7996 42.4152 31.5666 43.1823 31.5666 44.125V46.125H31.5667ZM21.9402 37.314H21.6808C19.1142 37.314 17.2513 35.2767 17.2513 32.4697V27.185C17.2513 26.6821 17.4601 26.1856 17.824 25.8228C18.1734 25.4745 18.625 25.2829 19.0963 25.2829H19.1017C19.7809 25.2849 20.4025 25.6588 20.7236 26.2585C20.8886 26.5666 21.2104 26.7549 21.5607 26.7533L29.537 26.663C29.5417 26.6629 29.5464 26.6629 29.5509 26.6629C29.8683 26.6629 30.1668 26.7855 30.3928 27.009C30.6221 27.2358 30.7485 27.5383 30.7485 27.8609V32.4697C30.7485 35.2767 28.8856 37.314 26.319 37.314H26.0596C25.5419 37.314 25.1221 37.7337 25.1221 38.2515V40.5402H22.8776V38.2515C22.8777 37.7337 22.458 37.314 21.9402 37.314ZM34.7246 37.0882C34.7246 40.4092 33.4604 41.3014 32.4488 41.6509C31.7955 40.9669 30.8751 40.54 29.8568 40.54H26.9973V39.1539C30.2487 38.8155 32.6237 36.0552 32.6237 32.4697V27.8608C32.6237 27.0334 32.2997 26.2573 31.7113 25.6756C31.1229 25.0938 30.3416 24.7799 29.5159 24.788L22.0549 24.8725C21.3602 23.9604 20.2764 23.4112 19.1076 23.4077H19.0964C18.1255 23.4077 17.2038 23.7935 16.5004 24.4948C15.7862 25.2068 15.3766 26.1874 15.3766 27.1848V32.4696C15.3766 36.0551 17.7516 38.8154 21.003 39.1538V40.5399H18.1435C17.1252 40.5399 16.2048 40.9667 15.5515 41.6507C14.5383 41.3004 13.2757 40.4058 13.2757 37.088V28.968C13.2757 23.0544 18.0866 18.2434 24.0003 18.2434C29.9139 18.2434 34.7249 23.0544 34.7249 28.968V37.0882H34.7246Z" fill="#8592AB"/>
<path d="M21.7911 29.6857C21.7911 29.1679 21.3713 28.7482 20.8536 28.7482C20.336 28.7482 19.9161 29.1679 19.9161 29.6857V30.4912C19.9161 31.009 20.336 31.4287 20.8536 31.4287C21.3713 31.4287 21.7911 31.009 21.7911 30.4912V29.6857Z" fill="#8592AB"/>
<path d="M27.1465 31.4287C27.6642 31.4287 28.084 31.009 28.084 30.4912V29.6857C28.084 29.1679 27.6642 28.7482 27.1465 28.7482C26.6288 28.7482 26.209 29.1679 26.209 29.6857V30.4912C26.209 31.009 26.6288 31.4287 27.1465 31.4287Z" fill="#8592AB"/>
<path d="M25.9806 34.5505C26.3466 34.1843 26.3465 33.5908 25.9804 33.2247C25.6142 32.8586 25.0207 32.8587 24.6545 33.2248C24.4797 33.3997 24.2472 33.4961 24 33.4961C23.7528 33.4961 23.5203 33.3997 23.3454 33.2248C22.9794 32.8587 22.3858 32.8586 22.0195 33.2247C21.6534 33.5908 21.6533 34.1843 22.0193 34.5505C22.5484 35.0797 23.2518 35.3711 24 35.3711C24.7482 35.3711 25.4515 35.0796 25.9806 34.5505Z" fill="#8592AB"/>
</svg>
