<svg width="20" height="20" viewBox="0 0 20 20" fill="none" xmlns="http://www.w3.org/2000/svg">
<path d="M8.09994 5.43287H8.09839L2.21875 4.98316V4.76685L2.2238 4.76723L8.36208 5.2585L8.09994 5.43287ZM2.22846 4.97384L8.09761 5.42316L8.33373 5.26588L2.22846 4.77694V4.97384Z" fill="#8592AB"/>
<path d="M10.2537 9.85762H9.38965L9.38887 9.85412L8.35547 5.70149L8.80052 5.40479L8.80246 5.411L10.2537 9.85762ZM9.39703 9.84791H10.2401L8.79547 5.41993L8.36673 5.70576L9.39703 9.84791Z" fill="#8592AB"/>
<path d="M10.3244 11.8014H9.42969V10.2239H10.3244V11.8014ZM9.4394 11.7917H10.3147V10.2336H9.4394V11.7917Z" fill="#8592AB"/>
<path d="M14.5137 15.874C13.7071 15.874 13.0508 15.2185 13.0508 14.4126C13.0508 13.606 13.7071 12.9497 14.5137 12.9497C15.3203 12.9497 15.9766 13.606 15.9766 14.4126C15.977 15.2181 15.3207 15.874 14.5137 15.874ZM14.5137 12.959C13.7121 12.959 13.0605 13.6111 13.0605 14.4122C13.0605 15.2126 13.7125 15.8639 14.5137 15.8639C15.3149 15.8639 15.9669 15.2126 15.9669 14.4122C15.9673 13.6111 15.3153 12.959 14.5137 12.959Z" fill="#8592AB"/>
<path d="M18.8769 14.2294H16.3348L16.3344 14.2252C16.2377 13.2892 15.4551 12.5832 14.5146 12.5832C13.574 12.5832 12.7914 13.2888 12.6947 14.2252L12.6944 14.2294H12.3076V12.7665C12.3076 12.6655 12.2252 12.5836 12.1246 12.5836H11.6641V6.1626H16.7546L16.7561 6.16532L18.8773 10.2403V14.2294H18.8769ZM16.3437 14.2197H18.8672V10.2426L16.7484 6.17231H11.6734V12.5735H12.1243C12.2307 12.5735 12.3169 12.6601 12.3169 12.7661V14.2193H12.685C12.7324 13.7704 12.9433 13.3556 13.2784 13.0512C13.6175 12.7432 14.0563 12.5735 14.5142 12.5735C14.972 12.5735 15.4109 12.7432 15.7499 13.0512C16.0858 13.356 16.2963 13.7708 16.3437 14.2197ZM17.5033 10.6504H15.3573C15.3064 10.6504 15.2559 10.6294 15.219 10.5925L14.8447 10.2104H12.7056C12.5992 10.2104 12.5126 10.1238 12.5126 10.0178V7.19173C12.5126 7.08532 12.5992 6.99911 12.7056 6.99911H16.2722C16.3452 6.99911 16.4105 7.03911 16.4427 7.10357L17.6753 9.46863C17.6889 9.49426 17.6963 9.52494 17.6963 9.55717V10.4578C17.6959 10.5638 17.6093 10.6504 17.5033 10.6504ZM12.7056 7.00881C12.6046 7.00881 12.5223 7.09115 12.5223 7.19173V10.0174C12.5223 10.1183 12.6046 10.2003 12.7056 10.2003H14.8489L14.8505 10.2018L15.2264 10.5855C15.2614 10.6205 15.3091 10.6403 15.3577 10.6403H17.5037C17.6047 10.6403 17.6866 10.558 17.6866 10.457V9.5564C17.6866 9.52611 17.6796 9.49698 17.6668 9.47251L16.4342 7.10746C16.4035 7.0461 16.3418 7.00843 16.2726 7.00843H12.7056V7.00881Z" fill="#8592AB"/>
<path d="M17.3186 10.2743H15.432L15.4304 10.2728L15.056 9.88909C15.0211 9.85413 14.9733 9.83433 14.9248 9.83433H12.8867V7.37451H16.1586L16.1601 7.37723L17.3182 9.60209V10.2743H17.3186ZM15.4362 10.2646H17.3089V9.60326L16.1531 7.38422H12.8968V9.82423H14.9252C14.976 9.82423 15.0265 9.8452 15.0634 9.88209L15.4362 10.2646Z" fill="#8592AB"/>
<path d="M15.1669 10.6412L15.1669 10.6412L15.1675 10.6418C15.2174 10.6917 15.285 10.72 15.3552 10.72H17.5013C17.646 10.72 17.7642 10.6018 17.7642 10.4571V9.5565C17.7642 9.51624 17.7559 9.47454 17.7356 9.43562C17.7355 9.43561 17.7355 9.4356 17.7355 9.43559L16.5032 7.07119C16.5032 7.07108 16.5031 7.07096 16.5031 7.07085C16.4583 6.98333 16.3685 6.92848 16.2702 6.92848H12.7036C12.5589 6.92848 12.4406 7.04672 12.4406 7.19144V10.0171C12.4406 10.1618 12.5589 10.28 12.7036 10.28H14.8131L15.1669 10.6412ZM15.113 9.83306L15.113 9.83305L15.1124 9.8324C15.0624 9.78242 14.9948 9.75412 14.9246 9.75412H12.9665V7.4544H16.1101L17.2383 9.6203V10.1941H15.4653L15.113 9.83306Z" fill="#8592AB" stroke="#8592AB" stroke-width="0.15"/>
<path d="M15.1646 10.645L15.1646 10.645L15.1651 10.6455C15.2158 10.6963 15.2853 10.7254 15.3564 10.7254H17.5024C17.6499 10.7254 17.7699 10.6052 17.7704 10.458V10.4577V9.55715C17.7704 9.51386 17.7606 9.47104 17.7409 9.43372C17.7408 9.43364 17.7408 9.43356 17.7407 9.43347L16.5086 7.0694C16.4634 6.97949 16.3721 6.92408 16.2713 6.92408H12.7047C12.6804 6.92408 12.6569 6.92733 12.6344 6.9334H12.6297V6.93473C12.5184 6.96712 12.4367 7.06977 12.4367 7.19171V10.0177C12.4367 10.1653 12.557 10.2854 12.7047 10.2854H14.8122L15.1646 10.645ZM15.3568 10.5653C15.3284 10.5653 15.2998 10.5536 15.2788 10.5327L14.9032 10.1493L14.9032 10.1493L14.9026 10.1488L14.9011 10.1472L14.8791 10.1253H14.848H12.7047C12.645 10.1253 12.5964 10.0767 12.5964 10.0173V7.19171C12.5964 7.13265 12.6451 7.08379 12.7047 7.08379H12.7797V7.0834H16.2717C16.313 7.0834 16.3485 7.10547 16.3662 7.14098L16.3662 7.14098L16.3668 7.1421L17.5994 9.50716L17.5995 9.50729C17.6063 9.52026 17.6107 9.53732 17.6107 9.55638V10.457C17.6107 10.5167 17.5621 10.5653 17.5028 10.5653H15.3568ZM15.3795 10.3275L15.4014 10.3494H15.4325H17.2437H17.3187H17.3191V10.3397H17.3844V10.2744H17.3937V9.6022V9.58385L17.3853 9.56757L16.2272 7.34271L16.2272 7.34268L16.2258 7.34012L16.2242 7.3374L16.2026 7.29962H16.1591H12.8873H12.8123V7.37462V9.83444V9.90944H12.8873H14.9253C14.9536 9.90944 14.9823 9.92108 15.0033 9.94194L15.3773 10.3253L15.3773 10.3253L15.3779 10.3259L15.3795 10.3275ZM12.9724 7.45933H16.1082L17.2344 9.62173V10.1897H15.4684L15.1177 9.82986L15.1177 9.82985L15.117 9.82917C15.0663 9.77844 14.9968 9.74934 14.9257 9.74934H12.9724V7.45933Z" fill="#8592AB" stroke="#8592AB" stroke-width="0.15"/>
<path d="M1.85684 4.37462C1.80318 4.42386 1.77316 4.49423 1.77316 4.56771V5.15334C1.77316 5.28964 1.87865 5.40364 2.01461 5.41451L2.01476 5.41452L2.2565 5.43336C2.3094 5.68115 2.42886 5.84078 2.54248 5.97661L2.54255 5.97669C2.5595 5.9969 2.57584 6.01555 2.59135 6.03325C2.6732 6.12665 2.73161 6.19331 2.73161 6.31995C2.73161 6.45251 2.62422 6.5599 2.49166 6.5599C2.3591 6.5599 2.25171 6.45251 2.25171 6.31995C2.25171 6.17523 2.13347 6.05699 1.98874 6.05699C1.84402 6.05699 1.72578 6.17523 1.72578 6.31995C1.72578 6.74362 2.06976 7.08583 2.49166 7.08583C2.91522 7.08583 3.25753 6.74351 3.25753 6.31995C3.25753 6.05219 3.1483 5.88219 3.0211 5.72714L3.02111 5.72713L3.02063 5.72656C3.00496 5.70784 2.98928 5.68981 2.97383 5.67203C2.92002 5.61012 2.86883 5.55123 2.82938 5.4766L7.9407 5.86749L8.986 10.0728V11.7211H2.77904H2.70404V11.7961V12.172V12.247H2.77904H11.2163V12.7658C11.2163 12.9105 11.3345 13.0288 11.4793 13.0288H11.8602V14.1491H7.60551V13.7778C7.60551 13.6331 7.48727 13.5149 7.34255 13.5149H6.65851C6.33817 12.9129 5.70287 12.5032 4.97283 12.5032C4.24423 12.5032 3.60939 12.9134 3.28875 13.5149H2.77904H2.70404V13.5899V13.9658V14.0408H2.77904H3.10117C3.07737 14.1607 3.0652 14.2844 3.0652 14.412C3.0652 15.4651 3.91936 16.3196 4.97283 16.3196C6.02781 16.3196 6.88202 15.4655 6.88202 14.412C6.88202 14.2844 6.86985 14.1607 6.84605 14.0408H7.07998V14.412C7.07998 14.5567 7.19822 14.675 7.34294 14.675H12.6218C12.7513 15.603 13.5482 16.3196 14.5131 16.3196C15.4779 16.3196 16.2749 15.603 16.4044 14.675H19.0587C19.2054 14.675 19.3217 14.5563 19.3217 14.412V10.1957C19.3217 10.1555 19.3133 10.1136 19.2924 10.0744C19.2923 10.0743 19.2923 10.0741 19.2922 10.074L17.0974 5.85906C17.0973 5.85888 17.0972 5.85871 17.0971 5.85854C17.0526 5.77068 16.9626 5.71601 16.8641 5.71601H11.4793C11.3345 5.71601 11.2163 5.83425 11.2163 5.97898V11.7215H10.7725V10.0438L10.7725 10.0425C10.7725 10.0342 10.7726 10.0175 10.7683 9.99868C10.7668 9.98735 10.7642 9.97004 10.7571 9.95198L9.1544 5.04069C9.15434 5.04049 9.15428 5.04029 9.15422 5.0401C9.12358 4.94191 9.03406 4.86519 8.92448 4.85645C8.92447 4.85644 8.92445 4.85644 8.92443 4.85644L2.0561 4.30499L2.05611 4.30497L2.05461 4.30488C1.98347 4.3006 1.91126 4.32457 1.85684 4.37462ZM1.85684 4.37462C1.85685 4.3746 1.85686 4.37459 1.85687 4.37458L1.90758 4.42984L1.8568 4.37465C1.85681 4.37464 1.85682 4.37463 1.85684 4.37462ZM2.31962 5.36305C2.36195 5.6248 2.48078 5.78597 2.60001 5.92849C2.61472 5.94603 2.62972 5.963 2.64458 5.9798C2.72777 6.07392 2.80661 6.16311 2.80661 6.31995C2.80661 6.49393 2.66564 6.6349 2.49166 6.6349C2.31768 6.6349 2.17671 6.49393 2.17671 6.31995C2.17671 6.21665 2.09204 6.13199 1.98874 6.13199C1.88544 6.13199 1.80078 6.21665 1.80078 6.31995C1.80078 6.70209 2.11107 7.01083 2.49166 7.01083C2.8738 7.01083 3.18253 6.70209 3.18253 6.31995C3.18253 6.07723 3.08545 5.92383 2.96312 5.7747C2.94896 5.75779 2.93428 5.74097 2.91939 5.72389C2.85643 5.65171 2.78969 5.5752 2.74296 5.46999L2.31962 5.36305ZM18.7954 10.2591V14.1491H16.4044C16.2749 13.2195 15.478 12.5028 14.5131 12.5028C13.5481 12.5028 12.7512 13.2195 12.6218 14.1491H12.3857V12.7658C12.3857 12.6215 12.2694 12.5028 12.1228 12.5028H11.7418V6.24194H16.7041L18.7954 10.2591ZM8.12676 5.31923L8.07895 5.35115L2.2987 4.90872V4.85284L8.12676 5.31923ZM9.45478 9.77739L8.44944 5.73637L8.76017 5.52922L10.1464 9.77739H9.45478ZM10.2466 11.7215H9.51154V10.3037H10.2466V11.7215ZM4.97283 15.7937C4.21076 15.7937 3.59113 15.1741 3.59113 14.412C3.59113 13.6483 4.21081 13.0288 4.97283 13.0288C5.73646 13.0288 6.35609 13.6484 6.35609 14.412C6.35609 15.174 5.73652 15.7937 4.97283 15.7937ZM14.5131 15.7937C13.7494 15.7937 13.1298 15.174 13.1298 14.412C13.1298 13.6484 13.7494 13.0288 14.5131 13.0288C15.2767 13.0288 15.8963 13.6484 15.8963 14.412C15.8963 15.174 15.2767 15.7937 14.5131 15.7937Z" fill="#8592AB" stroke="#8592AB" stroke-width="0.15"/>
<mask id="path-10-outside-1_5221_86983" maskUnits="userSpaceOnUse" x="0.796875" y="3.375" width="19" height="14" fill="black">
<rect fill="white" x="0.796875" y="3.375" width="19" height="14"/>
<path d="M14.5134 16.2499C14.0556 16.2499 13.6167 16.0802 13.2777 15.7723C12.9426 15.4678 12.7317 15.0534 12.6843 14.6053H7.34292C7.23651 14.6053 7.15029 14.5187 7.15029 14.4127V13.9711H6.75845C6.79379 14.1136 6.81204 14.262 6.81204 14.4127C6.81204 15.4259 5.98718 16.2499 4.9732 16.2499C3.95999 16.2499 3.13591 15.4259 3.13591 14.4127C3.13591 14.262 3.15377 14.1136 3.1895 13.9711H2.77474V13.5855H3.33164C3.48193 13.2868 3.71145 13.0344 3.99572 12.8554C4.28815 12.6709 4.6264 12.5738 4.9732 12.5738C5.32077 12.5738 5.65942 12.6713 5.95184 12.8554C6.23612 13.0344 6.46563 13.2868 6.61592 13.5855H7.34292C7.44932 13.5855 7.53593 13.6721 7.53593 13.7781V14.2196H11.9309V12.9591H11.48C11.3736 12.9591 11.2874 12.8725 11.2874 12.7664V12.1777H2.77474V11.7921H9.05632V10.0643L7.9969 5.80214L2.72115 5.39903C2.76581 5.54116 2.84581 5.63282 2.92309 5.72136C2.93824 5.73845 2.953 5.75553 2.96737 5.77262C3.09979 5.93379 3.18795 6.08874 3.18795 6.32097C3.18795 6.70466 2.87571 7.01651 2.49241 7.01651C2.10911 7.01651 1.79688 6.70428 1.79688 6.32097C1.79688 6.21457 1.88348 6.12835 1.9895 6.12835C2.09552 6.12835 2.18212 6.21495 2.18212 6.32097C2.18212 6.49185 2.32115 6.63088 2.49202 6.63088C2.6629 6.63088 2.80193 6.49185 2.80193 6.32097C2.80193 6.16602 2.72387 6.07787 2.64115 5.98427C2.62639 5.96757 2.61125 5.9501 2.5961 5.93262C2.47765 5.79087 2.35843 5.63049 2.31532 5.36874L2.01979 5.34544C1.92076 5.33728 1.84309 5.2534 1.84309 5.15437V4.56796C1.84309 4.51359 1.86522 4.46233 1.90406 4.4266C1.94328 4.39087 1.99649 4.37223 2.05008 4.37533L8.91846 4.92679C8.99613 4.93301 9.06409 4.98738 9.087 5.06194L10.6909 9.97691C10.6956 9.98778 10.6975 9.99905 10.699 10.0123C10.7022 10.0231 10.7022 10.0348 10.7022 10.0441V11.7921H11.2862V5.97922C11.2862 5.87282 11.3728 5.7866 11.4789 5.7866H16.8637C16.9367 5.7866 17.002 5.8266 17.0342 5.89107L19.2303 10.1074C19.2439 10.1334 19.2513 10.1637 19.2513 10.1959V14.4127C19.2513 14.5191 19.1647 14.6053 19.0587 14.6053H16.3422C16.2948 15.0534 16.0839 15.4678 15.7488 15.7723C15.4101 16.0802 14.9713 16.2499 14.5134 16.2499ZM6.74602 13.961H7.15961V14.4123C7.15961 14.5132 7.24195 14.5952 7.34253 14.5952H12.6928L12.6932 14.5995C12.7903 15.5346 13.5725 16.2398 14.513 16.2398C15.4536 16.2398 16.2362 15.5346 16.3329 14.5995L16.3332 14.5952H19.0583C19.1593 14.5952 19.2412 14.5129 19.2412 14.4123V10.1959C19.2412 10.1656 19.2342 10.1365 19.2214 10.1121L17.0261 5.89534C16.9954 5.83398 16.9336 5.79631 16.8645 5.79631H11.4796C11.3787 5.79631 11.2967 5.87864 11.2967 5.97922V11.8014H10.6932V10.0437C10.6932 10.0344 10.6932 10.0239 10.6901 10.0138C10.6886 10.0006 10.687 9.99011 10.6823 9.98002L9.07846 5.06466C9.05632 4.99398 8.99186 4.94233 8.91807 4.9365L2.05008 4.38504C1.99921 4.38194 1.94833 4.3998 1.91105 4.43398C1.87416 4.46776 1.85319 4.51669 1.85319 4.56835V5.15398C1.85319 5.24835 1.92697 5.32796 2.02095 5.33573L2.32387 5.35942L2.32464 5.3633C2.36697 5.62505 2.48581 5.78505 2.60387 5.92641C2.61863 5.94388 2.63377 5.96136 2.64853 5.97806C2.73241 6.07282 2.81164 6.16253 2.81164 6.32136C2.81164 6.49767 2.66833 6.64097 2.49202 6.64097C2.31571 6.64097 2.17241 6.49767 2.17241 6.32136C2.17241 6.22039 2.09008 6.13845 1.9895 6.13845C1.88891 6.13845 1.80658 6.22078 1.80658 6.32136C1.80658 6.69962 2.11416 7.00719 2.49241 7.00719C2.87067 7.00719 3.17785 6.69884 3.17785 6.32097C3.17785 6.09185 3.09047 5.93845 2.9596 5.77884C2.94523 5.76175 2.93047 5.74505 2.91571 5.72757C2.83649 5.6367 2.75455 5.54272 2.70989 5.39476L2.70795 5.38815L2.71494 5.38854L8.00467 5.79282L8.00544 5.79631L9.06603 10.0631V11.8014H2.78445V12.1676H11.2967V12.766C11.2967 12.867 11.379 12.949 11.4796 12.949H11.9402V14.229H7.52622V13.7777C7.52622 13.6767 7.44389 13.5948 7.34292 13.5948H6.6101L6.60893 13.5921C6.2967 12.9695 5.67029 12.5827 4.9732 12.5827C4.27727 12.5827 3.65125 12.9695 3.33902 13.5921L3.33785 13.5948H2.78445V13.961H3.20154L3.19999 13.9672C3.16387 14.1109 3.14523 14.2604 3.14523 14.4123C3.14523 15.42 3.96504 16.2398 4.97281 16.2398C5.98136 16.2398 6.80194 15.42 6.80194 14.4123C6.80194 14.2604 6.78369 14.1105 6.74719 13.9672L6.74602 13.961ZM14.5134 15.874C13.7068 15.874 13.0505 15.2185 13.0505 14.4127C13.0505 13.6061 13.7068 12.9497 14.5134 12.9497C15.32 12.9497 15.9763 13.6061 15.9763 14.4127C15.9767 15.2181 15.3204 15.874 14.5134 15.874ZM14.5134 12.9591C13.7119 12.9591 13.0602 13.6111 13.0602 14.4123C13.0602 15.2127 13.7123 15.8639 14.5134 15.8639C15.3146 15.8639 15.9666 15.2127 15.9666 14.4123C15.967 13.6111 15.315 12.9591 14.5134 12.9591ZM4.9732 15.874C4.16737 15.874 3.51183 15.2185 3.51183 14.4127C3.51183 13.6061 4.16737 12.9497 4.9732 12.9497C5.7798 12.9497 6.43612 13.6061 6.43612 14.4127C6.43612 15.2181 5.7798 15.874 4.9732 15.874ZM4.9732 12.9591C4.17281 12.9591 3.52154 13.6111 3.52154 14.4123C3.52154 15.2127 4.17281 15.8639 4.9732 15.8639C5.77476 15.8639 6.42641 15.2127 6.42641 14.4123C6.42641 13.6111 5.77437 12.9591 4.9732 12.9591ZM18.8758 14.2294H16.3336L16.3332 14.2251C16.2365 13.2892 15.454 12.5831 14.5134 12.5831C13.5728 12.5831 12.7903 13.2888 12.6936 14.2251L12.6932 14.2294H12.3064V12.7664C12.3064 12.6655 12.2241 12.5835 12.1235 12.5835H11.6629V6.16253H16.7534L16.755 6.16524L18.8762 10.2402V14.2294H18.8758ZM16.3426 14.2196H18.8661V10.2425L16.7472 6.17223H11.6723V12.5734H12.1231C12.2295 12.5734 12.3158 12.66 12.3158 12.766V14.2193H12.6839C12.7313 13.7703 12.9422 13.3556 13.2773 13.0511C13.6163 12.7431 14.0552 12.5734 14.513 12.5734C14.9709 12.5734 15.4097 12.7431 15.7488 13.0511C16.0847 13.356 16.2952 13.7707 16.3426 14.2196ZM10.327 11.8014H9.43225V10.2239H10.327V11.8014ZM9.44195 11.7917H10.3173V10.2336H9.44195V11.7917ZM10.2567 9.85769H9.39263L9.39186 9.85419L8.35846 5.70155L8.80351 5.40485L8.80545 5.41107L10.2567 9.85769ZM9.40001 9.84798H10.2431L8.79846 5.42L8.36972 5.70583L9.40001 9.84798ZM8.10059 5.43281H8.09904L2.2194 4.9831V4.76679L2.22445 4.76718L8.36273 5.25844L8.10059 5.43281ZM2.22911 4.97378L8.09826 5.42311L8.33438 5.26582L2.22911 4.77689V4.97378Z"/>
</mask>
<path d="M14.5134 16.2499C14.0556 16.2499 13.6167 16.0802 13.2777 15.7723C12.9426 15.4678 12.7317 15.0534 12.6843 14.6053H7.34292C7.23651 14.6053 7.15029 14.5187 7.15029 14.4127V13.9711H6.75845C6.79379 14.1136 6.81204 14.262 6.81204 14.4127C6.81204 15.4259 5.98718 16.2499 4.9732 16.2499C3.95999 16.2499 3.13591 15.4259 3.13591 14.4127C3.13591 14.262 3.15377 14.1136 3.1895 13.9711H2.77474V13.5855H3.33164C3.48193 13.2868 3.71145 13.0344 3.99572 12.8554C4.28815 12.6709 4.6264 12.5738 4.9732 12.5738C5.32077 12.5738 5.65942 12.6713 5.95184 12.8554C6.23612 13.0344 6.46563 13.2868 6.61592 13.5855H7.34292C7.44932 13.5855 7.53593 13.6721 7.53593 13.7781V14.2196H11.9309V12.9591H11.48C11.3736 12.9591 11.2874 12.8725 11.2874 12.7664V12.1777H2.77474V11.7921H9.05632V10.0643L7.9969 5.80214L2.72115 5.39903C2.76581 5.54116 2.84581 5.63282 2.92309 5.72136C2.93824 5.73845 2.953 5.75553 2.96737 5.77262C3.09979 5.93379 3.18795 6.08874 3.18795 6.32097C3.18795 6.70466 2.87571 7.01651 2.49241 7.01651C2.10911 7.01651 1.79688 6.70428 1.79688 6.32097C1.79688 6.21457 1.88348 6.12835 1.9895 6.12835C2.09552 6.12835 2.18212 6.21495 2.18212 6.32097C2.18212 6.49185 2.32115 6.63088 2.49202 6.63088C2.6629 6.63088 2.80193 6.49185 2.80193 6.32097C2.80193 6.16602 2.72387 6.07787 2.64115 5.98427C2.62639 5.96757 2.61125 5.9501 2.5961 5.93262C2.47765 5.79087 2.35843 5.63049 2.31532 5.36874L2.01979 5.34544C1.92076 5.33728 1.84309 5.2534 1.84309 5.15437V4.56796C1.84309 4.51359 1.86522 4.46233 1.90406 4.4266C1.94328 4.39087 1.99649 4.37223 2.05008 4.37533L8.91846 4.92679C8.99613 4.93301 9.06409 4.98738 9.087 5.06194L10.6909 9.97691C10.6956 9.98778 10.6975 9.99905 10.699 10.0123C10.7022 10.0231 10.7022 10.0348 10.7022 10.0441V11.7921H11.2862V5.97922C11.2862 5.87282 11.3728 5.7866 11.4789 5.7866H16.8637C16.9367 5.7866 17.002 5.8266 17.0342 5.89107L19.2303 10.1074C19.2439 10.1334 19.2513 10.1637 19.2513 10.1959V14.4127C19.2513 14.5191 19.1647 14.6053 19.0587 14.6053H16.3422C16.2948 15.0534 16.0839 15.4678 15.7488 15.7723C15.4101 16.0802 14.9713 16.2499 14.5134 16.2499ZM6.74602 13.961H7.15961V14.4123C7.15961 14.5132 7.24195 14.5952 7.34253 14.5952H12.6928L12.6932 14.5995C12.7903 15.5346 13.5725 16.2398 14.513 16.2398C15.4536 16.2398 16.2362 15.5346 16.3329 14.5995L16.3332 14.5952H19.0583C19.1593 14.5952 19.2412 14.5129 19.2412 14.4123V10.1959C19.2412 10.1656 19.2342 10.1365 19.2214 10.1121L17.0261 5.89534C16.9954 5.83398 16.9336 5.79631 16.8645 5.79631H11.4796C11.3787 5.79631 11.2967 5.87864 11.2967 5.97922V11.8014H10.6932V10.0437C10.6932 10.0344 10.6932 10.0239 10.6901 10.0138C10.6886 10.0006 10.687 9.99011 10.6823 9.98002L9.07846 5.06466C9.05632 4.99398 8.99186 4.94233 8.91807 4.9365L2.05008 4.38504C1.99921 4.38194 1.94833 4.3998 1.91105 4.43398C1.87416 4.46776 1.85319 4.51669 1.85319 4.56835V5.15398C1.85319 5.24835 1.92697 5.32796 2.02095 5.33573L2.32387 5.35942L2.32464 5.3633C2.36697 5.62505 2.48581 5.78505 2.60387 5.92641C2.61863 5.94388 2.63377 5.96136 2.64853 5.97806C2.73241 6.07282 2.81164 6.16253 2.81164 6.32136C2.81164 6.49767 2.66833 6.64097 2.49202 6.64097C2.31571 6.64097 2.17241 6.49767 2.17241 6.32136C2.17241 6.22039 2.09008 6.13845 1.9895 6.13845C1.88891 6.13845 1.80658 6.22078 1.80658 6.32136C1.80658 6.69962 2.11416 7.00719 2.49241 7.00719C2.87067 7.00719 3.17785 6.69884 3.17785 6.32097C3.17785 6.09185 3.09047 5.93845 2.9596 5.77884C2.94523 5.76175 2.93047 5.74505 2.91571 5.72757C2.83649 5.6367 2.75455 5.54272 2.70989 5.39476L2.70795 5.38815L2.71494 5.38854L8.00467 5.79282L8.00544 5.79631L9.06603 10.0631V11.8014H2.78445V12.1676H11.2967V12.766C11.2967 12.867 11.379 12.949 11.4796 12.949H11.9402V14.229H7.52622V13.7777C7.52622 13.6767 7.44389 13.5948 7.34292 13.5948H6.6101L6.60893 13.5921C6.2967 12.9695 5.67029 12.5827 4.9732 12.5827C4.27727 12.5827 3.65125 12.9695 3.33902 13.5921L3.33785 13.5948H2.78445V13.961H3.20154L3.19999 13.9672C3.16387 14.1109 3.14523 14.2604 3.14523 14.4123C3.14523 15.42 3.96504 16.2398 4.97281 16.2398C5.98136 16.2398 6.80194 15.42 6.80194 14.4123C6.80194 14.2604 6.78369 14.1105 6.74719 13.9672L6.74602 13.961ZM14.5134 15.874C13.7068 15.874 13.0505 15.2185 13.0505 14.4127C13.0505 13.6061 13.7068 12.9497 14.5134 12.9497C15.32 12.9497 15.9763 13.6061 15.9763 14.4127C15.9767 15.2181 15.3204 15.874 14.5134 15.874ZM14.5134 12.9591C13.7119 12.9591 13.0602 13.6111 13.0602 14.4123C13.0602 15.2127 13.7123 15.8639 14.5134 15.8639C15.3146 15.8639 15.9666 15.2127 15.9666 14.4123C15.967 13.6111 15.315 12.9591 14.5134 12.9591ZM4.9732 15.874C4.16737 15.874 3.51183 15.2185 3.51183 14.4127C3.51183 13.6061 4.16737 12.9497 4.9732 12.9497C5.7798 12.9497 6.43612 13.6061 6.43612 14.4127C6.43612 15.2181 5.7798 15.874 4.9732 15.874ZM4.9732 12.9591C4.17281 12.9591 3.52154 13.6111 3.52154 14.4123C3.52154 15.2127 4.17281 15.8639 4.9732 15.8639C5.77476 15.8639 6.42641 15.2127 6.42641 14.4123C6.42641 13.6111 5.77437 12.9591 4.9732 12.9591ZM18.8758 14.2294H16.3336L16.3332 14.2251C16.2365 13.2892 15.454 12.5831 14.5134 12.5831C13.5728 12.5831 12.7903 13.2888 12.6936 14.2251L12.6932 14.2294H12.3064V12.7664C12.3064 12.6655 12.2241 12.5835 12.1235 12.5835H11.6629V6.16253H16.7534L16.755 6.16524L18.8762 10.2402V14.2294H18.8758ZM16.3426 14.2196H18.8661V10.2425L16.7472 6.17223H11.6723V12.5734H12.1231C12.2295 12.5734 12.3158 12.66 12.3158 12.766V14.2193H12.6839C12.7313 13.7703 12.9422 13.3556 13.2773 13.0511C13.6163 12.7431 14.0552 12.5734 14.513 12.5734C14.9709 12.5734 15.4097 12.7431 15.7488 13.0511C16.0847 13.356 16.2952 13.7707 16.3426 14.2196ZM10.327 11.8014H9.43225V10.2239H10.327V11.8014ZM9.44195 11.7917H10.3173V10.2336H9.44195V11.7917ZM10.2567 9.85769H9.39263L9.39186 9.85419L8.35846 5.70155L8.80351 5.40485L8.80545 5.41107L10.2567 9.85769ZM9.40001 9.84798H10.2431L8.79846 5.42L8.36972 5.70583L9.40001 9.84798ZM8.10059 5.43281H8.09904L2.2194 4.9831V4.76679L2.22445 4.76718L8.36273 5.25844L8.10059 5.43281ZM2.22911 4.97378L8.09826 5.42311L8.33438 5.26582L2.22911 4.77689V4.97378Z" fill="#8592AB"/>
<path d="M14.5134 16.2499C14.0556 16.2499 13.6167 16.0802 13.2777 15.7723C12.9426 15.4678 12.7317 15.0534 12.6843 14.6053H7.34292C7.23651 14.6053 7.15029 14.5187 7.15029 14.4127V13.9711H6.75845C6.79379 14.1136 6.81204 14.262 6.81204 14.4127C6.81204 15.4259 5.98718 16.2499 4.9732 16.2499C3.95999 16.2499 3.13591 15.4259 3.13591 14.4127C3.13591 14.262 3.15377 14.1136 3.1895 13.9711H2.77474V13.5855H3.33164C3.48193 13.2868 3.71145 13.0344 3.99572 12.8554C4.28815 12.6709 4.6264 12.5738 4.9732 12.5738C5.32077 12.5738 5.65942 12.6713 5.95184 12.8554C6.23612 13.0344 6.46563 13.2868 6.61592 13.5855H7.34292C7.44932 13.5855 7.53593 13.6721 7.53593 13.7781V14.2196H11.9309V12.9591H11.48C11.3736 12.9591 11.2874 12.8725 11.2874 12.7664V12.1777H2.77474V11.7921H9.05632V10.0643L7.9969 5.80214L2.72115 5.39903C2.76581 5.54116 2.84581 5.63282 2.92309 5.72136C2.93824 5.73845 2.953 5.75553 2.96737 5.77262C3.09979 5.93379 3.18795 6.08874 3.18795 6.32097C3.18795 6.70466 2.87571 7.01651 2.49241 7.01651C2.10911 7.01651 1.79688 6.70428 1.79688 6.32097C1.79688 6.21457 1.88348 6.12835 1.9895 6.12835C2.09552 6.12835 2.18212 6.21495 2.18212 6.32097C2.18212 6.49185 2.32115 6.63088 2.49202 6.63088C2.6629 6.63088 2.80193 6.49185 2.80193 6.32097C2.80193 6.16602 2.72387 6.07787 2.64115 5.98427C2.62639 5.96757 2.61125 5.9501 2.5961 5.93262C2.47765 5.79087 2.35843 5.63049 2.31532 5.36874L2.01979 5.34544C1.92076 5.33728 1.84309 5.2534 1.84309 5.15437V4.56796C1.84309 4.51359 1.86522 4.46233 1.90406 4.4266C1.94328 4.39087 1.99649 4.37223 2.05008 4.37533L8.91846 4.92679C8.99613 4.93301 9.06409 4.98738 9.087 5.06194L10.6909 9.97691C10.6956 9.98778 10.6975 9.99905 10.699 10.0123C10.7022 10.0231 10.7022 10.0348 10.7022 10.0441V11.7921H11.2862V5.97922C11.2862 5.87282 11.3728 5.7866 11.4789 5.7866H16.8637C16.9367 5.7866 17.002 5.8266 17.0342 5.89107L19.2303 10.1074C19.2439 10.1334 19.2513 10.1637 19.2513 10.1959V14.4127C19.2513 14.5191 19.1647 14.6053 19.0587 14.6053H16.3422C16.2948 15.0534 16.0839 15.4678 15.7488 15.7723C15.4101 16.0802 14.9713 16.2499 14.5134 16.2499ZM6.74602 13.961H7.15961V14.4123C7.15961 14.5132 7.24195 14.5952 7.34253 14.5952H12.6928L12.6932 14.5995C12.7903 15.5346 13.5725 16.2398 14.513 16.2398C15.4536 16.2398 16.2362 15.5346 16.3329 14.5995L16.3332 14.5952H19.0583C19.1593 14.5952 19.2412 14.5129 19.2412 14.4123V10.1959C19.2412 10.1656 19.2342 10.1365 19.2214 10.1121L17.0261 5.89534C16.9954 5.83398 16.9336 5.79631 16.8645 5.79631H11.4796C11.3787 5.79631 11.2967 5.87864 11.2967 5.97922V11.8014H10.6932V10.0437C10.6932 10.0344 10.6932 10.0239 10.6901 10.0138C10.6886 10.0006 10.687 9.99011 10.6823 9.98002L9.07846 5.06466C9.05632 4.99398 8.99186 4.94233 8.91807 4.9365L2.05008 4.38504C1.99921 4.38194 1.94833 4.3998 1.91105 4.43398C1.87416 4.46776 1.85319 4.51669 1.85319 4.56835V5.15398C1.85319 5.24835 1.92697 5.32796 2.02095 5.33573L2.32387 5.35942L2.32464 5.3633C2.36697 5.62505 2.48581 5.78505 2.60387 5.92641C2.61863 5.94388 2.63377 5.96136 2.64853 5.97806C2.73241 6.07282 2.81164 6.16253 2.81164 6.32136C2.81164 6.49767 2.66833 6.64097 2.49202 6.64097C2.31571 6.64097 2.17241 6.49767 2.17241 6.32136C2.17241 6.22039 2.09008 6.13845 1.9895 6.13845C1.88891 6.13845 1.80658 6.22078 1.80658 6.32136C1.80658 6.69962 2.11416 7.00719 2.49241 7.00719C2.87067 7.00719 3.17785 6.69884 3.17785 6.32097C3.17785 6.09185 3.09047 5.93845 2.9596 5.77884C2.94523 5.76175 2.93047 5.74505 2.91571 5.72757C2.83649 5.6367 2.75455 5.54272 2.70989 5.39476L2.70795 5.38815L2.71494 5.38854L8.00467 5.79282L8.00544 5.79631L9.06603 10.0631V11.8014H2.78445V12.1676H11.2967V12.766C11.2967 12.867 11.379 12.949 11.4796 12.949H11.9402V14.229H7.52622V13.7777C7.52622 13.6767 7.44389 13.5948 7.34292 13.5948H6.6101L6.60893 13.5921C6.2967 12.9695 5.67029 12.5827 4.9732 12.5827C4.27727 12.5827 3.65125 12.9695 3.33902 13.5921L3.33785 13.5948H2.78445V13.961H3.20154L3.19999 13.9672C3.16387 14.1109 3.14523 14.2604 3.14523 14.4123C3.14523 15.42 3.96504 16.2398 4.97281 16.2398C5.98136 16.2398 6.80194 15.42 6.80194 14.4123C6.80194 14.2604 6.78369 14.1105 6.74719 13.9672L6.74602 13.961ZM14.5134 15.874C13.7068 15.874 13.0505 15.2185 13.0505 14.4127C13.0505 13.6061 13.7068 12.9497 14.5134 12.9497C15.32 12.9497 15.9763 13.6061 15.9763 14.4127C15.9767 15.2181 15.3204 15.874 14.5134 15.874ZM14.5134 12.9591C13.7119 12.9591 13.0602 13.6111 13.0602 14.4123C13.0602 15.2127 13.7123 15.8639 14.5134 15.8639C15.3146 15.8639 15.9666 15.2127 15.9666 14.4123C15.967 13.6111 15.315 12.9591 14.5134 12.9591ZM4.9732 15.874C4.16737 15.874 3.51183 15.2185 3.51183 14.4127C3.51183 13.6061 4.16737 12.9497 4.9732 12.9497C5.7798 12.9497 6.43612 13.6061 6.43612 14.4127C6.43612 15.2181 5.7798 15.874 4.9732 15.874ZM4.9732 12.9591C4.17281 12.9591 3.52154 13.6111 3.52154 14.4123C3.52154 15.2127 4.17281 15.8639 4.9732 15.8639C5.77476 15.8639 6.42641 15.2127 6.42641 14.4123C6.42641 13.6111 5.77437 12.9591 4.9732 12.9591ZM18.8758 14.2294H16.3336L16.3332 14.2251C16.2365 13.2892 15.454 12.5831 14.5134 12.5831C13.5728 12.5831 12.7903 13.2888 12.6936 14.2251L12.6932 14.2294H12.3064V12.7664C12.3064 12.6655 12.2241 12.5835 12.1235 12.5835H11.6629V6.16253H16.7534L16.755 6.16524L18.8762 10.2402V14.2294H18.8758ZM16.3426 14.2196H18.8661V10.2425L16.7472 6.17223H11.6723V12.5734H12.1231C12.2295 12.5734 12.3158 12.66 12.3158 12.766V14.2193H12.6839C12.7313 13.7703 12.9422 13.3556 13.2773 13.0511C13.6163 12.7431 14.0552 12.5734 14.513 12.5734C14.9709 12.5734 15.4097 12.7431 15.7488 13.0511C16.0847 13.356 16.2952 13.7707 16.3426 14.2196ZM10.327 11.8014H9.43225V10.2239H10.327V11.8014ZM9.44195 11.7917H10.3173V10.2336H9.44195V11.7917ZM10.2567 9.85769H9.39263L9.39186 9.85419L8.35846 5.70155L8.80351 5.40485L8.80545 5.41107L10.2567 9.85769ZM9.40001 9.84798H10.2431L8.79846 5.42L8.36972 5.70583L9.40001 9.84798ZM8.10059 5.43281H8.09904L2.2194 4.9831V4.76679L2.22445 4.76718L8.36273 5.25844L8.10059 5.43281ZM2.22911 4.97378L8.09826 5.42311L8.33438 5.26582L2.22911 4.77689V4.97378Z" stroke="#8592AB" stroke-width="0.3" mask="url(#path-10-outside-1_5221_86983)"/>
<path d="M2.38291 13.6347L2.38291 13.6347L2.38291 13.6347ZM2.38291 13.6347L2.38289 13.6346L2.38291 13.6347ZM0.925 14.9151V15.0855L1.05066 14.9704L2.44056 13.6974L2.44065 13.6973C2.45974 13.6797 2.48535 13.6697 2.5134 13.6697H3.30719H3.35665L3.37613 13.6242L3.37637 13.6237C3.6778 13.0275 4.27814 12.6576 4.94409 12.6576C5.61086 12.6576 6.21036 13.0275 6.51023 13.6236L6.5105 13.6242L6.52998 13.6697H6.57944H7.09711H7.17211V13.5947V12.1675V12.0925H7.09711H2.58486H2.5557L2.5342 12.1122L0.949342 13.5638L0.925 13.5861V13.6191V14.9151ZM7.01279 12.2522V13.51H6.63119C6.47441 13.2171 6.2438 12.9694 5.96158 12.7914L5.96153 12.7914C5.6571 12.5998 5.30498 12.4983 4.94409 12.4983C4.58252 12.4983 4.2304 12.5993 3.92589 12.7914C3.64356 12.969 3.41294 13.2168 3.25552 13.51H2.51302C2.44638 13.51 2.38198 13.534 2.33238 13.5793L2.33225 13.5794L1.08471 14.7225V13.6564L2.6179 12.2522H7.01279Z" fill="#8592AB" stroke="#8592AB" stroke-width="0.15"/>
<path d="M2.51319 11.7214C2.44822 11.7214 2.38419 11.745 2.33501 11.7917L0.741528 15.504C0.810266 15.5339 0.888713 15.5211 0.945024 15.4694L0.995684 15.5247L0.995721 15.5247L2.61574 14.0407H3.07066C3.04686 14.1606 3.03469 14.2843 3.03469 14.4119C3.03469 15.4651 3.89048 16.3196 4.94388 16.3196C5.99734 16.3196 6.8515 15.4654 6.8515 14.4119C6.8515 14.2843 6.83934 14.1606 6.81554 14.0407H7.09223H7.16723V13.9657V13.5898V13.5148H7.09223H6.628C6.30767 12.9129 5.67243 12.5031 4.94388 12.5031C4.21364 12.5031 3.58032 12.9134 3.25834 13.5148H2.51319C2.44812 13.5148 2.38452 13.5385 2.33571 13.5829L2.33554 13.583L1.07944 14.7336V13.6543L2.61574 12.2473H7.09223H7.16723V12.1723V11.7964V11.7214H7.09223H2.51319ZM4.94388 15.7936C4.18019 15.7936 3.56062 15.174 3.56062 14.4119C3.56062 13.6483 4.18024 13.0287 4.94388 13.0287C5.7059 13.0287 6.32558 13.6482 6.32558 14.4119C6.32558 15.174 5.70595 15.7936 4.94388 15.7936Z" fill="#8592AB" stroke="#8592AB" stroke-width="0.15"/>
<path d="M6.82287 14.0456C6.84615 14.1652 6.85808 14.288 6.85808 14.4122V14.4122C6.85768 15.4668 5.99965 16.3249 4.94502 16.3249C3.88967 16.3249 3.03118 15.4673 3.03118 14.4126C3.03118 14.2885 3.04284 14.1657 3.06624 14.046H2.61882L1.00041 15.5284L6.82287 14.0456ZM6.82287 14.0456H7.09842H7.17342V13.9706V13.585V13.51H7.09842H6.63211M6.82287 14.0456L6.63211 13.51M6.63211 13.51C6.47534 13.2172 6.24472 12.9694 5.9625 12.7915L5.96245 12.7914C5.65802 12.5998 5.30591 12.4984 4.94502 12.4984C4.58345 12.4984 4.23132 12.5994 3.92682 12.7914C3.64449 12.9691 3.41387 13.2169 3.25644 13.51H2.51394C2.44731 13.51 2.3829 13.5341 2.3333 13.5793L2.33317 13.5794L1.08563 14.7225V13.6565L2.61882 12.2526H7.09804H7.17304V12.1776V11.792V11.717H7.09804H2.51394C2.44622 11.717 2.38154 11.7421 2.33265 11.7884L0.637019 13.3416C0.63699 13.3416 0.636961 13.3417 0.636932 13.3417L0.636866 13.3417L6.63211 13.51ZM4.94502 15.949C4.09707 15.949 3.4071 15.2599 3.4071 14.4126C3.4071 13.5646 4.09699 12.8747 4.94502 12.8747C5.79233 12.8747 6.48136 13.5646 6.48138 14.4125L4.94502 15.949ZM4.94502 15.949C5.79224 15.949 6.48177 15.2595 6.48138 14.4126L4.94502 15.949ZM2.53512 13.9056L0.892433 15.4105C0.859488 15.4406 0.815292 15.4481 0.77455 15.4308C0.734815 15.4131 0.709709 15.3743 0.709709 15.3318V13.5384C0.709709 13.5095 0.722873 13.4794 0.744806 13.4593L2.44148 11.9056L2.44149 11.9056L2.44257 11.9045C2.46141 11.8866 2.48667 11.8763 2.51433 11.8763H7.01333V12.0925H2.58578H2.55663L2.53513 12.1122L0.950266 13.5639L0.925924 13.5862V13.6192V14.9151V15.0855L1.05158 14.9704L2.44149 13.6974L2.44157 13.6973C2.46067 13.6798 2.48627 13.6697 2.51433 13.6697H3.30773H3.35719L3.37667 13.6243L3.37691 13.6237C3.67834 13.0276 4.27867 12.6577 4.94463 12.6577C5.61139 12.6577 6.2109 13.0276 6.51077 13.6236L6.51104 13.6243L6.53052 13.6697H6.57998H7.01294V13.8859H6.7159H6.61984L6.64314 13.9791L6.64469 13.9853L6.64477 13.9857C6.67967 14.1227 6.69721 14.2663 6.69721 14.4122C6.69721 15.3785 5.91098 16.1648 4.94463 16.1648C3.97744 16.1648 3.1905 15.3785 3.1905 14.4122C3.1905 14.2665 3.20838 14.1231 3.24299 13.9854L3.24301 13.9853L3.24457 13.9791L3.26786 13.8859H3.17181H2.58578H2.55662L2.53512 13.9056ZM6.32167 14.4122V14.4122C6.32167 15.1712 5.70399 15.7889 4.94502 15.7889C4.18519 15.7889 3.56681 15.1711 3.56681 14.4122C3.56681 13.6524 4.1849 13.034 4.94502 13.034C5.70394 13.034 6.32204 13.6524 6.32167 14.4122Z" fill="#8592AB" stroke="#8592AB" stroke-width="0.15"/>
</svg>
